<?xml version="1.0" standalone="no"?>
<!DOCTYPE svg PUBLIC "-//W3C//DTD SVG 1.1//EN" "http://www.w3.org/Graphics/SVG/1.1/DTD/svg11.dtd" >
<svg xmlns="http://www.w3.org/2000/svg">
<metadata></metadata>
<defs>
<font id="thaisans_neue_ultbdregular" horiz-adv-x="0" >
<font-face units-per-em="2048" ascent="1569" descent="-479" />
<missing-glyph horiz-adv-x="843" />
<glyph unicode="&#x3b;&#x3b;arm&#x3b;&#x3b;" horiz-adv-x="2736" d="M97 1626v105h419v209q-60 0 -108 63t-48 146q0 89 63.5 149.5t144.5 60.5q100 0 155 -55t55 -155q0 -49 -17.5 -94.5t-54 -78t-85.5 -36.5v-209h420v-105h-420v-315l281 -630h-105l-229 525l-228 -525h-104l280 630v315h-419zM202 0q0 24 6.5 49t21 49t35 43t52 30.5 t68.5 11.5q79 0 131 -52t52 -131q0 -100 -70 -150l58 -267l144 289h53l143 -289l92 548h131l-41 -221l28 53l170 40q0 182 28.5 291.5t85 156.5t149.5 47q76 0 116.5 -50.5t40.5 -132.5h-52q0 27 -8.5 50.5t-27 39t-43.5 15.5q-98 0 -141 -95t-43 -296l192 47l23 -96 l-215 -56v-104q0 -77 -1 -135.5t-5 -123t-10.5 -112.5t-17.5 -97t-26 -83.5t-36.5 -66t-49 -50.5t-63.5 -29.5t-79 -10.5q-82 0 -132.5 40.5t-50.5 116.5h53q0 -37 31 -58t74 -21q38 0 68 10.5t51.5 37.5t37 53t25 77.5t15 89t8 110t3 118t0.5 134.5v78l-208 -53l-90 -471 h-68l-184 393l-183 -393h-68l-85 419l48 32q-3 -3 -16 -3q-7 -2 -37 -2q-17 0 -36 4t-40 12t-40 23t-34 34t-24 46.5t-9 60.5zM307 0q0 -32 20.5 -54t57.5 -22q78 0 78 76q0 78 -78 78q-37 0 -57.5 -22t-20.5 -56zM463 2149q0 -45 25 -75t80.5 -30t80 30t24.5 75 q0 38 -16 62.5t-38 33.5t-51 9q-45 0 -75 -24.5t-30 -80.5zM1068 681l596 1626h452l523 -1626h-418l-160 499h-705l-185 -499h-103zM1408 1311h608l-285 891zM1746 52l52 263h78l-78 -263h-52zM1819 2228l34 -102l61 102h-95zM1871 2079l22 -73l136 222h-65zM1876 52l53 263 h79l-79 -263h-53zM1911 1956l29 -95l146 247l-28 88zM1966 1783l15 -52l148 243l-16 52zM2003 1668l16 -53l147 244l-17 52zM2036 -260q0 130 40.5 244t114 184t160.5 70q139 0 213.5 -95.5t74.5 -270.5q0 -251 -89 -374.5t-251 -123.5q-52 0 -97.5 21t-83.5 63t-60 114.5 t-22 167.5zM2042 1546l16 -52l146 242l-18 55zM2076 1441l18 -62l147 244l-18 63zM2113 1321l18 -53l145 245l-14 52zM2141 -207l368 157q-4 47 -21 90q-41 91 -137 91q-113 0 -172 -171q-26 -70 -38 -167zM2141 -338q0 -42 16.5 -82.5t53.5 -71t88 -30.5q38 0 68.5 14 t52 39.5t36 53.5t26.5 64q23 76 27 171zM2149 1203l17 -42l146 239l-13 50zM2184 1101l15 -42l147 241l-15 45zM2218 996l16 -50l149 239l-16 55zM2252 891l19 -60l146 247l-18 57zM2286 786l8 -26h34l123 208l-18 62zM2369 760h53l64 108l-19 52zM2464 760h52l-17 58z" />
<glyph unicode=" "  horiz-adv-x="843" />
<glyph unicode="&#x09;" horiz-adv-x="843" />
<glyph unicode="&#xa0;" horiz-adv-x="843" />
<glyph unicode="!" horiz-adv-x="495" d="M97 0v296h301v-296h-301zM97 412v1069h301v-1069h-301z" />
<glyph unicode="&#x22;" horiz-adv-x="888" d="M97 943v535h288v-535h-288zM503 943v535h288v-535h-288z" />
<glyph unicode="#" horiz-adv-x="1619" d="M97 378l73 267h200l36 128h-199l66 268h207l97 359h301l-97 -359h215l100 359h302l-100 -359h225l-73 -268h-224l-36 -128h228l-78 -267h-224l-101 -378h-302l102 378h-215l-105 -378h-300l101 378h-199zM671 645h217l37 128h-217z" />
<glyph unicode="$" horiz-adv-x="1176" d="M97 110v250q65 -33 144 -62q165 -57 297 -57q68 0 117.5 17t75 45.5t36.5 58.5t11 63q0 39 -19 70t-51.5 51.5t-76 40t-92.5 34.5t-101 35t-101 41t-92.5 54.5t-76.5 73.5t-52 98.5t-19 129.5q0 137 98.5 234t260.5 131v202h294v-199q107 -16 204 -60q21 -10 74 -43v-248 q-76 29 -126 44q-176 44 -304 44q-37 0 -83 -13.5t-81.5 -38t-35.5 -50.5q0 -30 19 -55t52 -42.5t76.5 -35.5t92.5 -33.5t101 -37.5t101 -46t93 -60.5t76.5 -80t51.5 -105t19 -135.5q0 -57 -10.5 -109.5t-35.5 -104t-62.5 -93t-95 -74t-128.5 -49.5v-213h-295v198 q-127 0 -251 65q-38 17 -105 65z" />
<glyph unicode="%" horiz-adv-x="1646" d="M97 1151q0 124 39 223t114 158t175 59q72 0 132.5 -32.5t100.5 -89t62 -132.5t22 -162q0 -125 -38 -226t-114 -162t-178 -61q-61 0 -113 22t-88.5 61t-62.5 92.5t-38.5 116.5t-12.5 133zM223 0l962 1696h331l-963 -1696h-330zM393 1156q0 -32 1 -57t2.5 -41.5t4 -28.5 t5 -18t5.5 -10t5.5 -4.5t5.5 -0.5q8 0 13.5 8t10.5 46.5t5 107.5q0 67 -3 102t-9 48t-17 13q-20 0 -24.5 -28.5t-4.5 -136.5zM905 375q0 92 21.5 173.5t62 144t105 99t144.5 36.5q96 0 167.5 -57.5t107.5 -154.5t36 -218q0 -88 -25 -168t-68 -138t-103.5 -92.5t-128.5 -34.5 q-99 0 -172 55t-110 147t-37 208zM1198 337.5q0 -12.5 1 -33t2.5 -31t4.5 -22t8 -16.5t12 -5q32 0 32 155q0 85 -6 129t-26 44q-19 0 -23.5 -36t-4.5 -124v-13v-9v-38.5z" />
<glyph unicode="&#x26;" horiz-adv-x="1596" d="M97 390q0 139 74.5 233.5t221.5 162.5q-71 46 -118 121t-47 168q0 70 32 134.5t87.5 112t134.5 76t168 28.5q87 0 163.5 -28t128 -73.5t81.5 -104t30 -119.5q0 -57 -14.5 -103t-46.5 -85t-66 -67.5t-90 -67.5q18 -13 45.5 -34.5t36.5 -28t27.5 -21t23 -18.5t18.5 -16 t18.5 -17t17.5 -19t21.5 -24t25.5 -29q53 116 70 188.5t24 181.5l5 100h307q-11 -175 -68.5 -370.5t-156.5 -332.5q31 -37 89 -52.5t159 -15.5v-270q-146 0 -263.5 30t-174.5 95q-74 -52 -143 -84t-148 -48t-175 -16q-83 0 -156.5 15t-136.5 47t-108 80t-71 117t-26 154z M398 390q0 -30 8 -53.5t19 -38.5t29.5 -26t34.5 -16.5t39 -8.5t36.5 -3.5t33.5 -0.5q37 0 67 3.5t50.5 8t43.5 14.5t37 17.5t41 23t46 25.5q-8 12 -29 41.5t-27.5 39t-24 32.5t-25.5 31.5t-24.5 27t-27.5 27.5t-29 24t-35 25.5t-39 23.5t-47 25q-8 -5 -34.5 -21t-40.5 -26 t-36.5 -31t-34.5 -41.5t-21.5 -53t-9.5 -69.5zM530 1075q0 -32 6.5 -57.5t21 -44t23 -27t24.5 -21.5q53 24 88 52.5t47.5 52t12.5 45.5q0 34 -28 55t-75 21q-60 0 -90 -26.5t-30 -49.5z" />
<glyph unicode="'" horiz-adv-x="495" d="M97 943v535h301v-535h-301z" />
<glyph unicode="(" horiz-adv-x="759" d="M58 548q0 272 93 510t257 431h332q-79 -99 -147 -208.5t-124 -230.5t-88.5 -250.5t-32.5 -249.5q0 -108 22 -215t58 -198t89 -184t106 -167t119 -153h-330q-121 149 -196.5 285t-116.5 293.5t-41 336.5z" />
<glyph unicode=")" horiz-adv-x="759" d="M18 -367q394 474 394 912q0 461 -392 944h328q80 -94 143.5 -198t111.5 -221.5t74 -250.5t26 -271q0 -519 -357 -915h-328z" />
<glyph unicode="*" horiz-adv-x="756" d="M97 1068l213 110l-213 110l86 117l150 -142l-28 208h146l-31 -210l155 144l85 -117l-215 -110l215 -110l-85 -120l-155 145l31 -210h-146l28 208l-150 -143z" />
<glyph unicode="+" horiz-adv-x="1123" d="M97 461v267h328v340h275v-340h328v-267h-328v-304h-275v304h-328z" />
<glyph unicode="," horiz-adv-x="497" d="M-157 -285q67 25 125 75q129 108 129 268v215h304v-215q0 -165 -118 -268q-56 -52 -115 -75h-325z" />
<glyph unicode="-" horiz-adv-x="848" d="M97 498v247h656v-247h-656z" />
<glyph unicode="." horiz-adv-x="495" d="M97 0v273h301v-273h-301z" />
<glyph unicode="/" horiz-adv-x="791" d="M18 0l459 1693h296l-461 -1693h-294z" />
<glyph unicode="0" horiz-adv-x="1228" d="M58 673q0 170 39.5 311t111 239.5t175.5 153t229 54.5q120 0 223 -51.5t177 -144.5t116 -230t42 -302q0 -163 -43 -299t-119.5 -229.5t-184 -145.5t-234.5 -52q-161 0 -281.5 84t-185.5 241.5t-65 370.5zM360 681q0 -103 14.5 -182t38 -126.5t56.5 -77.5t65 -41t69 -11 q36 0 70 12t70.5 43.5t63 79.5t44 128.5t17.5 183.5q0 107 -16.5 190t-42.5 134t-62 84t-71 45.5t-73 12.5q-34 0 -66 -12.5t-65 -46.5t-57 -85.5t-39.5 -136.5t-15.5 -194z" />
<glyph unicode="1" horiz-adv-x="743" d="M58 908v263q112 39 230 137q52 44 100 92h260v-1400h-302v1001q-76 -50 -288 -93z" />
<glyph unicode="2" horiz-adv-x="1031" d="M58 0v205q0 66 33 133t86 123.5t117.5 113t129 110.5t117.5 106t86 109.5t33 111.5q0 36 -10.5 62.5t-26.5 41.5t-38.5 24.5t-42 12.5t-42.5 3q-87 0 -201 -37.5t-189 -98.5v254q62 63 167 110t223 47q105 0 193 -32.5t146.5 -87.5t91 -128.5t32.5 -154.5q0 -86 -24 -160 t-64 -129t-90 -102.5t-106.5 -91t-108 -83.5t-100 -90t-77.5 -102h622v-270h-957z" />
<glyph unicode="3" horiz-adv-x="1058" d="M97 78v275q61 -50 160.5 -80t190.5 -30q24 0 51.5 3t65 13t66 25.5t49 44.5t20.5 67q0 44 -16 75.5t-49.5 54t-90.5 35.5t-133 18.5t-183 5.5v270q112 -7 210 5q42 5 77.5 16.5t66 30t48.5 47.5t18 66q0 38 -12 65t-27 40.5t-39.5 21t-39.5 8.5t-37 1q-216 0 -343 -95 v257q44 29 96.5 53t120 42t126.5 18t122 -15t122.5 -46t106.5 -74t75.5 -104t28.5 -131q0 -64 -20 -117.5t-54 -89.5t-80 -62t-95.5 -39t-103.5 -17q57 -7 110 -20.5t108.5 -39.5t95.5 -61t66 -88.5t26 -118.5q0 -72 -22 -136t-67 -118t-110 -93.5t-155.5 -61.5t-198.5 -22 q-85 0 -187.5 32.5t-163.5 68.5z" />
<glyph unicode="4" horiz-adv-x="1086" d="M18 305v225l625 870h267v-820h160v-275h-160l-2 -305h-300v305h-590zM398 580h210v296z" />
<glyph unicode="5" horiz-adv-x="1006" d="M97 52v299q88 -49 95 -53q96 -51 191 -51q32 0 54 1t52.5 5t50.5 11t42 20.5t35.5 32.5t22 48t8.5 65q0 29 -6.5 56.5t-22.5 56.5t-41 50.5t-65.5 35.5t-92.5 14q-97 0 -223 -27q-52 -12 -100 -23v807h763v-270h-462v-231h63q71 0 138.5 -15.5t131.5 -51t111.5 -87 t76.5 -130t29 -175.5q0 -100 -34 -183t-102 -146.5t-177.5 -98.5t-251.5 -35q-145 0 -286 75z" />
<glyph unicode="6" horiz-adv-x="1098" d="M58 605q0 140 21 259t60.5 208.5t94 158.5t121.5 112.5t142.5 65.5t157.5 22q32 0 75.5 -4t87.5 -11t84.5 -17t62.5 -20v-273q-48 14 -105 27q-122 26 -205 23q-60 -3 -108.5 -24.5t-81 -58t-54 -80t-33.5 -97.5q113 37 222 37q81 0 160.5 -36t141.5 -97.5t100.5 -150.5 t38.5 -188q0 -84 -25.5 -160t-71 -134.5t-106.5 -101.5t-135 -65.5t-153 -22.5q-78 0 -150.5 25.5t-135 77.5t-108.5 125.5t-72 176.5t-26 223zM372 461q0 -56 15 -98t35 -64t47 -35.5t45.5 -17t35.5 -3.5q21 0 45.5 7t51 23.5t47.5 40.5t34.5 62t13.5 85q0 43 -9 77.5 t-25 56t-35 36.5t-42 22t-41.5 10t-39.5 3q-47 0 -83 -19t-56 -50.5t-29.5 -65.5t-9.5 -70z" />
<glyph unicode="7" horiz-adv-x="1021" d="M18 1130v270l986 -2v-80l-484 -1318h-313l433 1130h-622z" />
<glyph unicode="8" horiz-adv-x="1071" d="M58 398q0 79 17 139.5t53.5 112t99.5 103.5q-118 114 -118 285q0 70 30.5 140t84 126.5t135 91.5t175.5 35q87 0 168 -36.5t136.5 -94t89.5 -127t34 -135.5q0 -44 -8 -81t-27 -74t-35.5 -61.5t-48.5 -68.5q78 -62 124.5 -155.5t46.5 -199.5q0 -90 -31.5 -166.5 t-90 -133.5t-148 -89t-200.5 -32q-120 0 -214 32t-153 89.5t-89.5 133.5t-30.5 166zM360 430q0 -45 12 -79.5t30.5 -54.5t43 -32.5t46 -16.5t43.5 -4q23 0 44 3.5t46.5 15.5t44 31t31 53t12.5 79q0 94 -51.5 142.5t-126.5 48.5q-21 0 -42.5 -4.5t-46 -17t-43 -32t-31 -54 t-12.5 -78.5zM412 1023q0 -40 11.5 -68.5t31 -42.5t39 -20t41.5 -6q11 0 25.5 3t33 12.5t33.5 24t25.5 40t10.5 57.5q0 7 -2 18t-6.5 26.5t-14 30.5t-23 28.5t-35 21.5t-47.5 8q-33 0 -57.5 -12.5t-36.5 -29t-19 -38t-8.5 -33t-1.5 -20.5z" />
<glyph unicode="9" horiz-adv-x="1095" d="M58 943q0 88 27 166.5t74.5 136.5t109 100t132.5 63.5t144 21.5q112 0 205.5 -50.5t156 -138.5t97 -208t34.5 -258q0 -390 -166 -594.5t-474 -204.5q-59 0 -137.5 14t-127.5 32v270q27 -12 79 -25q95 -25 181 -25h11h27.5t32.5 2.5t37 6.5t38 13t40 21.5t38 32.5t38 45.5 t33.5 61t29.5 77.5q-114 -36 -225 -36q-85 0 -166 41t-139.5 107t-94 153t-35.5 175zM357 943q0 -210 188 -210q38 0 69 12t49.5 32t32 41.5t19.5 44t8.5 37t2.5 23.5q0 26 -3.5 52.5t-14.5 60.5t-29.5 59t-53 43t-80.5 18q-38 0 -71 -15.5t-54 -39t-35.5 -53t-21 -56 t-6.5 -49.5z" />
<glyph unicode=":" horiz-adv-x="495" d="M97 0v293h301v-293h-301zM97 740v296h301v-296h-301z" />
<glyph unicode=";" horiz-adv-x="497" d="M-157 -285q75 46 125 93q129 124 129 250v230h304v-230q0 -132 -118 -250q-52 -52 -115 -93h-325zM100 736v297h301v-297h-301z" />
<glyph unicode="&#x3c;" horiz-adv-x="1089" d="M58 415v151l1015 557v-308l-580 -320l580 -275v-296z" />
<glyph unicode="=" horiz-adv-x="1123" d="M97 262v263h931v-263h-931zM97 640v262h931v-262h-931z" />
<glyph unicode="&#x3e;" horiz-adv-x="1089" d="M18 -76v296l577 275l-577 320v308l1015 -557v-151z" />
<glyph unicode="?" horiz-adv-x="966" d="M97 1023v248q33 48 81 79q122 81 280 81q108 0 203 -47t152 -128.5t57 -175.5q0 -56 -17 -105t-45 -84.5t-61.5 -67t-67 -58.5t-61.5 -52t-45 -54t-17 -59v-188h-301v211q0 37 13.5 71.5t35.5 62t50 55.5t57.5 51t57.5 48.5t50 48.5t35.5 50t13.5 54q0 89 -146 89 q-111 0 -234 -65q-10 -5 -19.5 -11t-19 -13.5t-17 -13t-18.5 -14t-17 -13.5zM255 0v296h301v-296h-301z" />
<glyph unicode="@" horiz-adv-x="1713" d="M97 548q0 101 29.5 197.5t81 178t125 150t160 116t187 74t203.5 26.5q150 0 285.5 -49t234.5 -133.5t157 -204t58 -253.5q0 -102 -33 -200t-86 -169t-122.5 -114.5t-138.5 -43.5q-23 0 -43.5 1.5t-38.5 6.5t-31 8t-28 12.5t-22 12.5t-21 15.5t-16.5 14.5t-16.5 16.5 t-15 14.5q-2 -1 -5 -5q-18 -18 -32.5 -30t-44.5 -30t-73 -27.5t-96 -9.5q-76 0 -145 31t-120.5 85t-81.5 132.5t-30 168.5q0 81 25.5 152.5t67.5 122.5t96.5 87.5t112.5 54.5t115 18q73 0 152 -42.5t99 -88.5l22 104h230l-85 -428q-7 -56 -7 -98q0 -94 55 -94 q44 0 82.5 32.5t63.5 81.5t39 104.5t14 103.5q0 62 -23 130.5t-72 136t-116 121.5t-162.5 87t-203.5 33q-110 0 -210.5 -38t-175 -101t-130.5 -142.5t-84 -164.5t-28 -164q0 -84 25 -165.5t75.5 -154t121 -127.5t168.5 -87t210 -32q190 0 378 76v-136q-213 -72 -378 -72 q-155 0 -294.5 53t-241.5 144.5t-162 222t-60 278.5zM678 540q0 -38 9.5 -66.5t22 -43t28.5 -23t25 -10t15 -1.5q33 0 59 12t41 33.5t25 43.5t13.5 48.5t5 40.5t1.5 26q0 135 -76 142q-39 0 -70.5 -15t-49 -37t-29.5 -50.5t-16 -53t-4 -46.5z" />
<glyph unicode="A" horiz-adv-x="1338" d="M18 0l522 1400h257l524 -1400h-309l-126 333h-441l-128 -333h-299zM543 603h245l-120 345z" />
<glyph unicode="B" horiz-adv-x="1150" d="M97 0v1400h435q81 0 151 -18t123 -51t91.5 -77.5t58 -99t19.5 -113.5q0 -62 -19.5 -111.5t-51.5 -81.5t-74 -53.5t-84.5 -30.5t-85.5 -9q52 0 102.5 -9t104 -32.5t94 -59.5t66.5 -95t26 -134q0 -83 -30.5 -153.5t-82 -119.5t-119.5 -84t-143 -51.5t-153 -16.5h-428z M398 270h110q110 0 177.5 43t67.5 112q0 27 -6.5 51t-24 48t-45.5 41t-74.5 27.5t-107.5 10.5h-97v-333zM398 873h65q101 0 155.5 36t54.5 106q0 115 -165 115h-6h-7h-97v-257z" />
<glyph unicode="C" horiz-adv-x="1236" d="M58 687q0 163 55 303t149 236t222 150.5t271 54.5q150 0 268 -26t196 -62l-105 -260q-73 36 -171 54.5t-188 18.5q-70 0 -129 -21.5t-98.5 -55t-70.5 -78.5t-48.5 -89t-28.5 -90.5t-14.5 -78t-3.5 -56.5q0 -129 49 -229.5t138.5 -157.5t205.5 -57q90 0 176 28.5t180 76.5 l105 -256q-82 -48 -214 -81.5t-266 -33.5q-146 0 -273 55.5t-215.5 150.5t-139 226t-50.5 278z" />
<glyph unicode="D" horiz-adv-x="1346" d="M97 0v1400h414q137 0 253 -23t214.5 -75t166.5 -130.5t106.5 -195t38.5 -263.5q0 -135 -42 -250.5t-116 -200t-174 -144t-217.5 -89t-245.5 -29.5h-398zM398 270h97q82 0 152.5 17t124 47t95 71t68 90.5t40 104.5t13.5 113q0 97 -25 171t-79 130.5t-146 86t-218 29.5 h-122v-860z" />
<glyph unicode="E" horiz-adv-x="1018" d="M97 0v1400h826v-270h-525v-294h472v-273h-472v-293h525v-270h-826z" />
<glyph unicode="F" horiz-adv-x="940" d="M97 0v1400h826v-270h-525v-294h472v-273h-472v-563h-301z" />
<glyph unicode="G" horiz-adv-x="1373" d="M58 673q0 87 18 170.5t53.5 158.5t85 141t114.5 118.5t140 90.5t163.5 58.5t182.5 20.5q193 0 331 -58q56 -24 105 -57v-307q-73 58 -202.5 102.5t-267.5 44.5q-67 0 -125 -18.5t-100 -49t-76 -72t-56 -86t-37 -91.5t-21 -88.5t-6 -77.5q1 -37 7.5 -74.5t20 -80.5 t33 -81.5t50 -74.5t69 -62t92 -41.5t116.5 -15.5h41h36.5t28 1t29.5 3t25.5 5.5t32.5 9t34 13.5v238h-288v270h589v-688q-95 -54 -246.5 -86t-284.5 -32q-79 0 -154.5 16t-143.5 47.5t-127.5 76.5t-107.5 104t-82.5 128t-53 152t-18.5 172z" />
<glyph unicode="H" horiz-adv-x="1306" d="M97 0v1400h301v-540h512l-2 540h303v-1400h-301v590h-512l-2 -590h-299z" />
<glyph unicode="I" horiz-adv-x="495" d="M97 0v1400h301v-1400h-301z" />
<glyph unicode="J" horiz-adv-x="828" d="M18 52l105 231q9 -4 27.5 -10.5t27.5 -10.5q60 -19 113 -19q68 0 103.5 61t35.5 204v892h301v-892q0 -118 -27.5 -211.5t-72.5 -153t-107 -98.5t-125.5 -55t-133.5 -16q-89 0 -173 39q-37 15 -74 39z" />
<glyph unicode="K" horiz-adv-x="1203" d="M97 0v1400h301v-507l415 507h367l-415 -519l420 -881h-322l-300 640l-165 -197v-443h-301z" />
<glyph unicode="L" horiz-adv-x="940" d="M97 0v1400h301v-1130h525v-270h-826z" />
<glyph unicode="M" horiz-adv-x="1674" d="M97 0v1400h328l401 -923l422 923h330v-1400h-302v786l-366 -786h-174l-338 765v-765h-301z" />
<glyph unicode="N" horiz-adv-x="1386" d="M97 0v1400h306l583 -889v889h304v-1400h-310l-582 878v-878h-301z" />
<glyph unicode="O" horiz-adv-x="1491" d="M58 681q0 159 47.5 296.5t135 238t217.5 158t287 57.5q106 0 200.5 -25.5t169.5 -72.5t135.5 -113t100.5 -146t61.5 -172t21.5 -192q0 -160 -48 -294.5t-137 -232t-223 -152t-300 -54.5q-153 0 -279.5 54t-211 148.5t-131 223.5t-46.5 278zM360 681q0 -92 21 -167 t56.5 -124.5t83.5 -83t99 -48.5t106 -15q63 0 120 15t110 50t92 87.5t62 133t23 181.5q0 92 -22.5 168t-60 126.5t-87.5 85.5t-102.5 50.5t-107.5 15.5q-52 0 -100 -11.5t-92 -35t-80.5 -62.5t-63.5 -90.5t-42 -121.5t-15 -154z" />
<glyph unicode="P" horiz-adv-x="1084" d="M97 0v1400h411q84 0 159 -15.5t141.5 -50.5t115 -86.5t76.5 -128t28 -171.5q0 -88 -21 -162t-59 -126.5t-88.5 -91.5t-114 -62t-131 -34t-142.5 -11h-74l-2 -461h-299zM398 731h74q74 0 125.5 16.5t78.5 47.5t38.5 67t11.5 84q0 23 -1 39t-6 37t-13.5 35t-24.5 29t-39 24 t-57 14.5t-77 5.5h-110v-399z" />
<glyph unicode="Q" horiz-adv-x="1491" d="M58 681q0 157 49.5 296t136.5 238.5t210 157.5t264 58q95 0 181.5 -19t157.5 -54.5t131.5 -85t105.5 -111.5t76.5 -133.5t47.5 -152t16 -165.5q0 -112 -25.5 -214.5t-71 -184t-105.5 -144t-131 -102.5q29 -12 55.5 -25.5t57 -36.5t53 -48.5t37 -61t14.5 -73.5h-288 q0 66 -40 107.5t-99 62.5q-55 -13 -199 -13q-134 0 -252 54.5t-202 148t-132 224t-48 277.5zM360 681q0 -92 20 -167t55 -125.5t82.5 -84t100 -48.5t110.5 -15q62 0 118.5 15t109.5 50.5t91.5 88.5t62 134t23.5 181q0 93 -22 168.5t-60.5 126.5t-91.5 85.5t-113 50 t-128 15.5q-48 0 -96.5 -16t-96 -53t-84 -90.5t-59 -135t-22.5 -180.5z" />
<glyph unicode="R" horiz-adv-x="1246" d="M97 0v1400h448q72 0 140.5 -15t131 -48.5t110 -80.5t75.5 -115.5t28 -149.5q0 -46 -14.5 -87.5t-39.5 -73t-56 -58t-64.5 -43t-65.5 -25.5t-59 -9q55 -20 124 -106t157 -229l218 -360h-349l-176 307q-39 69 -81.5 118.5t-77.5 71.5t-59 31.5t-42 9.5h-47l-2 -538h-299z M398 810l115 3q111 2 162 46t51 132q0 133 -213 137l-115 2v-320z" />
<glyph unicode="S" horiz-adv-x="1176" d="M97 113v254q47 -31 115 -60q133 -60 268 -60q54 0 93 3t80.5 13.5t66.5 29.5t41.5 52t16.5 80q0 40 -19 72t-51.5 53t-76 40t-92.5 33t-101 33.5t-101 40t-92.5 53.5t-76.5 73t-52 99t-19 131q0 101 64.5 187t177.5 136t249 50q208 0 340 -55q61 -22 100 -53v-265 q-58 25 -132 50q-144 53 -308 53q-59 0 -103 -15.5t-64 -38.5t-20 -49q0 -34 23 -61t62.5 -46t90.5 -36t107 -36.5t112.5 -43t107.5 -59t90.5 -81t62.5 -113.5t23 -152q0 -78 -19.5 -144.5t-61.5 -123t-103.5 -96.5t-149.5 -62t-196 -22q-187 0 -335 68q-57 23 -118 68z" />
<glyph unicode="T" horiz-adv-x="1058" d="M18 1130v270h1023v-270h-354v-1130h-302v1130h-367z" />
<glyph unicode="U" horiz-adv-x="1306" d="M97 545v855h301v-844q0 -64 8.5 -114.5t25.5 -84t38 -56.5t49.5 -35.5t57 -17.5t63.5 -5q25 0 48.5 3t51 11.5t51 21.5t46 36t38.5 53.5t25.5 74.5t9.5 97v860h301v-837q0 -123 -28.5 -221.5t-79 -166t-123 -112.5t-157.5 -65.5t-186 -20.5q-119 0 -216 33.5t-170.5 101 t-113.5 178t-40 255.5z" />
<glyph unicode="V" horiz-adv-x="1338" d="M18 1400h307l343 -939l344 939h309l-524 -1400h-257z" />
<glyph unicode="W" horiz-adv-x="1879" d="M18 1400h307l250 -892l272 892h212l226 -880l269 880h307l-438 -1400h-293l-187 788l-225 -788h-293z" />
<glyph unicode="X" horiz-adv-x="1323" d="M18 0l465 700l-433 700h351l262 -435l285 435h358l-468 -700l468 -700h-358l-288 440l-288 -440h-354z" />
<glyph unicode="Y" horiz-adv-x="1236" d="M18 1400h315l272 -556l294 556h320l-464 -884v-516h-304v516z" />
<glyph unicode="Z" horiz-adv-x="1150" d="M18 0v131l672 999h-620v270h1063v-132l-675 -998h648v-270h-1088z" />
<glyph unicode="[" horiz-adv-x="657" d="M97 -367v1861h543v-270h-257v-1321h257v-270h-543z" />
<glyph unicode="\" horiz-adv-x="791" d="M18 1693h294l461 -1693h-296z" />
<glyph unicode="]" horiz-adv-x="657" d="M18 -97h257v1321h-257v270h543v-1861h-543v270z" />
<glyph unicode="^" horiz-adv-x="1423" d="M97 506l506 985h155l568 -985h-311l-328 562l-284 -562h-306z" />
<glyph unicode="_" horiz-adv-x="1123" d="M97 115h931v-243h-931v243z" />
<glyph unicode="`" horiz-adv-x="846" d="M97 1563h343l310 -410h-307z" />
<glyph unicode="a" horiz-adv-x="1079" d="M97 836q36 70 91 118q132 121 344 121q95 0 177 -28.5t143 -81t96 -132t35 -175.5v-658h-288v163q-6 -7 -27.5 -32t-34.5 -39t-39 -37t-48 -35.5t-53 -22.5t-63 -10q-89 0 -165 43.5t-120 118.5q-40 69 -40 148v15q1 42 11 77.5t26.5 61.5t38 47t47.5 35t52 24t55 15.5 t54.5 7.5t50.5 2q125 0 195 18q47 16 55 21q0 37 -5.5 67.5t-14.5 50.5t-23 35t-28 23t-32 13t-32.5 6.5t-32.5 1.5q-144 0 -254 -73q-51 -30 -95 -74zM393 312q0 -21 7 -36.5t17.5 -24.5t26.5 -14.5t31 -7t33 -1.5q30 0 63.5 8t68.5 28t55 48v100q-8 -1 -28.5 -5.5 t-31.5 -5.5q-56 -8 -140 -8q-31 0 -66.5 -23.5t-35.5 -57.5z" />
<glyph unicode="b" horiz-adv-x="1203" d="M97 0v1481h288v-611q15 56 50 105q81 108 208 108q47 0 100.5 -14.5t110.5 -42t109 -73t93 -102.5t65.5 -135.5t24.5 -167.5q0 -85 -18 -159.5t-48.5 -130.5t-72.5 -102t-88.5 -77t-98 -52t-100 -30.5t-94.5 -9.5q-129 0 -198 100q-34 55 -43 101v-188h-288zM385 343 q31 -31 66 -50q79 -46 157 -46q53 0 96.5 17t78.5 51.5t55 93t20 136.5q0 122 -74 200t-176 78q-63 0 -155 -50q-45 -30 -68 -50v-380z" />
<glyph unicode="c" horiz-adv-x="958" d="M58 503q0 124 44.5 232.5t118.5 182t171 115.5t201 42q121 0 243 -55q18 -8 105 -52l-118 -258q-35 27 -73 53q-84 55 -155 55q-51 0 -94 -21t-71 -54t-47.5 -75t-28 -84t-8.5 -81q0 -41 9 -78.5t29 -71.5t49.5 -58.5t72.5 -39t94 -14.5q77 0 153 52q34 23 70 55 l118 -256q-107 -48 -118 -52q-125 -53 -228 -53q-69 0 -134.5 14.5t-126 42t-110.5 71.5t-87.5 99.5t-58 129.5t-20.5 159z" />
<glyph unicode="d" horiz-adv-x="1203" d="M58 548q0 78 21 151.5t57 130t82.5 103.5t97.5 78t102.5 47.5t97.5 16.5q127 0 229 -102q49 -54 73 -103v611h288v-1481h-288v188q-26 -53 -65 -98q-100 -100 -223 -100q-64 0 -130 23t-127 70.5t-109.5 113t-77 157t-28.5 194.5zM346 545q0 -80 24.5 -148t74 -111 t113.5 -43q128 0 200 50q33 19 60 50v380q-23 27 -60 48q-92 49 -197 49q-63 0 -113.5 -42t-76 -104.5t-25.5 -128.5z" />
<glyph unicode="e" horiz-adv-x="1066" d="M58 513q0 86 21.5 168.5t64 153.5t101 124.5t137 84.5t166.5 31q91 0 165 -25.5t125.5 -71t88 -111t55 -142t22.5 -167.5l5 -138h-658q0 -29 16 -60t46 -58t79 -44t108 -17q131 0 203 50q28 16 62 49l100 -215q-49 -42 -105 -67q-138 -68 -292 -68q-90 0 -167.5 20.5 t-141 63.5t-108 104.5t-69 147t-24.5 187.5zM367 676h341q0 15 -9.5 37t-27.5 46.5t-51 41.5t-72 17q-34 0 -69 -17.5t-58.5 -41t-38.5 -47t-15 -36.5z" />
<glyph unicode="f" horiz-adv-x="756" d="M18 783v260h168l2 73q3 66 12.5 119t34 105.5t62.5 88t100 57.5t143 22q74 0 147 -22q7 -3 17.5 -6.5t19.5 -7t16 -6.5v-276q-25 18 -55 31q-57 32 -92 32h-5q-13 1 -22.5 0t-28.5 -7.5t-31 -19.5t-21.5 -41.5t-9.5 -68.5v-73h265v-260h-263l-2 -783h-287v783h-170z" />
<glyph unicode="g" horiz-adv-x="1203" d="M58 513q0 103 31 195t82 158t115.5 114t132.5 71.5t131 23.5q126 0 213 -102q38 -53 55 -103l-3 191h291v-974q0 -280 -149.5 -412.5t-445.5 -132.5q-143 0 -268 70q-68 36 -112 73l105 234q28 -32 71 -59q98 -57 204 -57q32 0 57.5 1.5t59 7.5t58.5 16.5t51 29.5 t43 45.5t27.5 66.5t10.5 90v128q-18 -55 -50 -101q-77 -102 -207 -102q-70 0 -142 23t-136.5 69.5t-115 109t-80 147.5t-29.5 179zM346 513q0 -39 13.5 -85t38 -89.5t65 -72t87.5 -28.5q111 0 203 47q30 16 65 50v381q-30 29 -65 47q-97 50 -203 50q-63 0 -111 -46 t-70.5 -113t-22.5 -141z" />
<glyph unicode="h" horiz-adv-x="1123" d="M97 0v1481h288v-637q25 61 66 116q85 115 192 115q91 0 165.5 -34t121.5 -91t72.5 -129.5t25.5 -152.5v-668h-288v676q0 53 -46 92.5t-138 39.5q-55 0 -121 -43q-36 -25 -50 -39v-726h-288z" />
<glyph unicode="i" horiz-adv-x="481" d="M97 0v1061h288v-1061h-288zM97 1198v283h288v-283h-288z" />
<glyph unicode="j" horiz-adv-x="481" d="M-280 -360l102 229q19 -19 45 -32q41 -32 78 -32q24 0 43 4t40.5 18.5t35.5 39.5t23.5 69.5t9.5 105.5v1019h288v-988q0 -115 -27.5 -210.5t-81.5 -167t-140.5 -111.5t-198.5 -40q-76 0 -157 48q-26 14 -60 48zM97 1196v285h288v-285h-288z" />
<glyph unicode="k" horiz-adv-x="1058" d="M97 0v1481h288v-800l313 380h343l-328 -398l315 -663h-297l-204 438l-142 -178v-260h-288z" />
<glyph unicode="l" horiz-adv-x="481" d="M97 0v1481h288v-1481h-288z" />
<glyph unicode="m" horiz-adv-x="1766" d="M97 0v1061h288v-217q0 4 9.5 26.5t31.5 57.5t52.5 67.5t79.5 56t105 23.5q63 0 118.5 -22t95.5 -59.5t67.5 -76.5t48.5 -84q3 4 18 31.5t29 50t41 54t54.5 53.5t67 37.5t82.5 15.5q73 0 136.5 -23.5t108.5 -63.5t77 -92.5t47.5 -110.5t15.5 -117v-668h-289v676 q0 13 -4 28.5t-15.5 34t-29 33t-47.5 24t-69 9.5q-7 0 -15.5 -1t-15 -2.5t-16 -4.5t-14.5 -5t-16 -6.5t-15 -6t-16 -7t-15 -7.5q-16 -9 -65 -39v-726h-288v676q0 57 -45 92t-139 35q-34 0 -111 -40q-9 -5 -60 -37v-726h-288z" />
<glyph unicode="n" horiz-adv-x="1123" d="M97 0v1061h288v-217q28 69 68 116q28 34 56 57.5t70.5 40.5t91.5 17q65 0 123 -23.5t100 -63.5t72.5 -92.5t46 -110.5t15.5 -117v-668h-288l-4 676q0 17 -9 38t-26.5 42t-48 35t-67.5 14q-23 0 -50.5 -7t-43 -13.5t-43.5 -19.5q-32 -17 -63 -39v-726h-288z" />
<glyph unicode="o" horiz-adv-x="1173" d="M58 516q0 94 22 178.5t67 154t108.5 120t150 78.5t187.5 28q121 0 221 -42.5t165.5 -116t101 -171t35.5 -207.5q0 -119 -38 -220.5t-106.5 -175.5t-171 -115.5t-225.5 -41.5q-93 0 -175 27t-144 75.5t-107 114.5t-68 146t-23 168zM346 516q0 -37 6 -72.5t22 -73t41 -65.5 t66 -46t94 -18q58 0 103 17t72.5 45t45.5 67.5t25 80t7 87.5q0 40 -6.5 77.5t-23.5 75t-43 65t-68 45t-94 17.5q-58 0 -102.5 -20.5t-71 -51.5t-44 -73t-23.5 -80t-6 -77z" />
<glyph unicode="p" horiz-adv-x="1203" d="M97 -417v1478h288v-191q17 36 66 103q39 47 78 74.5t87 27.5q61 0 119 -12t110.5 -36.5t98.5 -59.5t83 -82.5t63.5 -103.5t41 -124.5t14.5 -143.5q0 -78 -23 -151.5t-60.5 -130t-86.5 -104t-102 -78.5t-105.5 -47.5t-97.5 -16.5q-136 0 -223 102q-42 49 -63 101v-605 h-288zM385 335q32 -32 68 -50q76 -49 187 -49q15 0 38.5 7t55 26.5t58 49t45 80.5t18.5 114q0 58 -10 105t-26 78t-39 54t-45 35t-47.5 19.5t-43.5 9t-36 1.5q-63 0 -155 -50q-45 -30 -68 -49v-381z" />
<glyph unicode="q" horiz-adv-x="1203" d="M58 513q0 87 18 165.5t50.5 139.5t75.5 110t92.5 81t102.5 49t106 17q129 0 237 -102q48 -48 78 -103v191h288v-1478h-288v605q-17 -52 -55 -101q-83 -102 -213 -102q-67 0 -136.5 23t-133 69.5t-113.5 109t-79.5 147.5t-29.5 179zM346 513q0 -46 9.5 -85.5t25 -67 t36 -50t41 -36t41.5 -22.5t37 -12.5t27 -3.5q106 0 182 49q25 13 73 50v381q-35 26 -73 49q-97 50 -163 50q-12 0 -27 -1.5t-39 -9t-46 -19.5t-45.5 -35t-40 -54t-27.5 -78t-11 -105z" />
<glyph unicode="r" horiz-adv-x="736" d="M97 0v1061h288v-296q19 85 55 155q78 158 183 158q20 0 64 -19l31 -16v-288q-37 15 -42 18q-54 18 -81 18q-66 0 -144 -88q-36 -40 -66 -90v-613h-288z" />
<glyph unicode="s" horiz-adv-x="966" d="M97 68v255q52 -32 95 -48q124 -47 214 -47q52 0 88 7t54.5 20.5t26 29t7.5 35.5q0 29 -20.5 51.5t-55 36.5t-78 29.5t-89 30t-89 40t-77.5 57.5t-55 83.5t-21 116.5q0 63 26 117t67.5 90.5t93 62.5t102.5 38t97 12q138 0 257 -49q46 -23 78 -50v-246q-61 29 -102 43 q-129 48 -233 48q-42 0 -70 -24t-28 -42q0 -17 16.5 -30t45 -23t64.5 -20t76.5 -24t80.5 -31.5t76.5 -46t64.5 -64t44.5 -88.5t16.5 -118q0 -158 -118.5 -250.5t-321.5 -92.5q-107 0 -225 43q-49 17 -108 48z" />
<glyph unicode="t" horiz-adv-x="756" d="M18 783v260h170l-2 438h291v-438h263v-260h-263v-408q0 -21 2.5 -39t6.5 -31t10 -23.5t12 -16.5t13.5 -11t13.5 -7t13.5 -3t11 -1h9h6.5q43 0 110 27q39 17 55 28v-272q-14 -9 -48 -18q-56 -18 -139 -18q-92 0 -163.5 30t-115.5 83t-66 120.5t-22 146.5v413h-168z" />
<glyph unicode="u" horiz-adv-x="1123" d="M97 390v671h288v-639q0 -35 11 -63.5t27 -45t37.5 -27.5t40 -14.5t37.5 -3.5q53 0 135 42q46 25 67 41v710h288v-1048h-288v202q-13 -51 -45 -107q-67 -108 -200 -108q-92 0 -169 33.5t-126 89t-76 125t-27 142.5z" />
<glyph unicode="v" horiz-adv-x="1105" d="M18 1061h322l226 -616l225 616h297l-378 -1061h-285z" />
<glyph unicode="w" horiz-adv-x="1548" d="M18 1061h317l150 -571l188 571h213l167 -571l168 571h310l-333 -1061h-265l-160 550l-178 -550h-278z" />
<glyph unicode="x" horiz-adv-x="1093" d="M18 0l362 530l-362 531h330l197 -290l197 290h331l-363 -545l365 -516h-330l-200 278l-199 -278h-328z" />
<glyph unicode="y" horiz-adv-x="1166" d="M18 1061h312l275 -616l231 616h312l-477 -1203q-30 -75 -64 -130.5t-79 -98t-104 -64t-131 -21.5q-114 0 -198 44q-41 20 -66 45l99 225q20 -14 52 -28q62 -27 93 -27q54 0 86.5 38t60.5 119l33 100z" />
<glyph unicode="z" horiz-adv-x="1013" d="M97 0v133l471 672h-421v256h849v-141l-469 -665h461v-255h-891z" />
<glyph unicode="{" horiz-adv-x="691" d="M58 398v245q26 2 42 3.5t36 6t31 10.5t23.5 17t18.5 26.5t10 37.5t4 51v306q0 56 8 102t27 90t52.5 78t82.5 61t119.5 43t160.5 21v-266q-16 0 -31 -1t-40.5 -8.5t-43 -20.5t-31.5 -40t-14 -64v-315q0 -51 -19.5 -96t-53 -78t-75 -57.5t-87.5 -38.5q44 -12 85 -35 t75.5 -56.5t54.5 -80t20 -98.5v-301q0 -24 5 -43t14 -32t20 -22.5t24.5 -14.5t25.5 -8t25 -3.5t21.5 -0.5t16.5 0.5l8 0.5v-270q-92 0 -167 18.5t-127.5 51.5t-87.5 80t-51.5 103t-16.5 122v311q0 30 -4 53t-10 39.5t-18.5 28t-23.5 18.5t-31.5 12.5t-35.5 8t-42 5.5z" />
<glyph unicode="|" horiz-adv-x="483" d="M97 -328v1948h291v-1948h-291z" />
<glyph unicode="}" horiz-adv-x="691" d="M18 -183l8 -0.5t16.5 -0.5t21.5 0.5t25 3.5t25.5 8t24.5 14.5t20 22.5t14 32t5 43v301q0 52 20.5 99t54.5 80.5t76 57t86 33.5q-47 14 -88.5 38.5t-75 57.5t-53.5 78t-20 96v315q0 37 -13.5 64t-31.5 40t-43.5 20.5t-40 8.5t-31.5 1v266q90 -5 161 -21t119.5 -43 t82.5 -61t53 -78t27.5 -90t8.5 -102v-306q0 -29 4 -51t10 -37.5t18 -26.5t23.5 -17t31.5 -10.5t35.5 -6t42.5 -3.5v-245q-28 -3 -43 -5.5t-35.5 -8t-31 -12.5t-23 -18.5t-18.5 -28t-10 -39.5t-4 -53v-311q0 -82 -27 -149.5t-80.5 -118.5t-141.5 -79t-203 -28v270z" />
<glyph unicode="~" horiz-adv-x="1121" d="M97 433q0 45 8 91t28 96t50 88t80 62.5t112 24.5q36 0 70 -7t60.5 -18t50.5 -24.5t45 -27.5t40 -25t38 -18t37 -7q9 0 16 1t12.5 4.5t9 6.5t6 11t4.5 13t3 17.5t2 20t2 25t2 28.5h252q-1 -38 -6 -73t-15 -72t-24 -68t-35 -59t-48 -48t-63 -31t-79 -11q-57 0 -109 12.5 t-87 31t-64 37t-54.5 31.5t-44.5 13q-31 0 -39.5 -25t-8.5 -100h-251z" />
<glyph unicode="&#xa9;" horiz-adv-x="1721" d="M97 634.5q0 157.5 60.5 299.5t163 243.5t244 161t298.5 59.5t298.5 -59.5t243.5 -161.5t161.5 -243t59.5 -299q0 -105 -27 -204.5t-76 -183t-119 -153t-153.5 -118t-183 -75t-204.5 -26.5q-157 0 -298.5 59t-244 160t-163 242t-60.5 298.5zM233 632.5q0 -127.5 50 -244 t135 -201t202 -134.5t245 -50t244 50t200.5 134.5t134.5 201t50 244t-50 243.5t-134.5 200.5t-200.5 134.5t-244 50t-245 -50t-202 -134.5t-135 -200.5t-50 -243.5zM388 621q0 225 129 361.5t338 136.5q60 0 142 -11.5t131 -27.5l-45 -94q-85 39 -225 39q-67 0 -125.5 -23 t-99.5 -62.5t-71 -91t-44.5 -109.5t-14.5 -118q0 -79 23.5 -149.5t67 -125t112 -86.5t152.5 -32q67 0 119 13.5t106 43.5l42 -97q-50 -28 -127.5 -42.5t-153.5 -14.5q-206 0 -331 134.5t-125 355.5z" />
<glyph unicode="&#xad;" horiz-adv-x="848" d="M97 498v247h656v-247h-656z" />
<glyph unicode="&#xae;" horiz-adv-x="1721" d="M97 634.5q0 157.5 60.5 299.5t163 243.5t244 161t298.5 59.5t298.5 -59.5t243.5 -161.5t161.5 -243t59.5 -299q0 -105 -27 -204.5t-76 -183t-119 -153t-153.5 -118t-183 -75t-204.5 -26.5q-157 0 -298.5 59t-244 160t-163 242t-60.5 298.5zM233 630q0 -129 50 -246 t135 -201t202 -133.5t245 -49.5q132 0 249 49.5t201 133.5t132.5 200.5t48.5 246.5q0 132 -48.5 249t-132.5 200.5t-201 132.5t-249 49q-103 0 -199 -31t-174 -88.5t-136.5 -135t-90.5 -174.5t-32 -202zM568 170v963h282q59 0 111.5 -16t95.5 -47t68.5 -82.5t25.5 -117.5 q0 -60 -18.5 -106.5t-51 -76t-71 -46.5t-85.5 -25q49 -27 96.5 -68.5t69.5 -77.5l175 -300h-138l-163 273q-38 65 -97 102t-103 37h-80v-412h-117zM685 678h112q48 0 90 11.5t76.5 34t54.5 60t20 86.5q0 79 -56 121t-156 42h-141v-355z" />
<glyph unicode="&#xbc;" horiz-adv-x="2076" d="M115 1426v145q65 23 123 73q36 30 55 49h140v-757h-163v542q-46 -29 -155 -52zM398 0l983 1693h297l-986 -1693h-294zM1446 315v120l340 473h143v-445h87v-148h-87l-3 -165h-160v165h-320zM1651 463h115v160z" />
<glyph unicode="&#xbd;" horiz-adv-x="2096" d="M115 1426v145q65 23 123 73q36 30 55 49h140v-757h-163v542q-46 -29 -155 -52zM398 0l983 1693h297l-986 -1693h-294zM1491 150v112q0 37 18.5 73.5t48 67.5t65 62t71 60.5t64.5 58.5t47.5 61t18.5 63q0 25 -7.5 41.5t-22 24t-28 10t-30.5 2.5q-32 0 -69.5 -8t-77.5 -26 t-68 -42v142q35 36 92 61t123 25q115 0 184 -64t69 -158q0 -48 -13 -88t-35.5 -70.5t-50 -56.5t-58.5 -49.5t-59 -46t-54 -50.5t-41 -57h341v-148h-528z" />
<glyph unicode="&#xbe;" horiz-adv-x="2131" d="M97 991v149q32 -28 86.5 -44t104.5 -16q16 0 35.5 3t44.5 11t41 26t16 44q0 40 -26 62t-80 31t-151 9v145q67 -5 112 2q116 15 116 90q0 24 -8.5 40.5t-23.5 22.5t-26 8t-26 2q-113 0 -187 -53v138q98 64 187 64q27 0 55 -6t55.5 -17t52 -28.5t43 -39.5t29.5 -50.5 t11 -60.5q0 -43 -16 -76.5t-44 -53.5t-60.5 -31t-70.5 -14q32 -4 60 -11.5t58.5 -21.5t52 -33t36 -48t14.5 -65q0 -101 -78 -167t-222 -66q-84 0 -191 55zM453 0l983 1693h297l-985 -1693h-295zM1503 315v120l338 473h143v-445h87v-148h-87l-3 -165h-160v165h-318zM1706 463 h115v160z" />
<glyph unicode="&#xe01;" horiz-adv-x="1276" d="M58 923q51 98 130 173q186 175 407 175q118 0 224.5 -30.5t186.5 -84.5t127 -135.5t47 -176.5v-629q0 -57 -82 -145q-43 -42 -78 -70h-142v791q0 48 -16.5 85t-43 59.5t-63 37t-71.5 20t-73 5.5q-92 0 -166 -38q-29 -17 -49 -37l162 -132q-34 -29 -50 -58 q-47 -81 -47 -175v-558h-291v582q0 85 18 154q17 46 22 55q-7 5 -77 67q-75 61 -75 65z" />
<glyph unicode="&#xe02;" horiz-adv-x="1084" d="M58 980v265h175q102 0 179 -23.5t121.5 -65.5t66 -94t21.5 -114q0 -63 -25 -121t-66 -99q-27 -27 -61 -91.5t-34 -106.5v-105q0 -182 118 -182q63 0 98.5 48t35.5 134v820h301v-820q0 -48 -5.5 -91.5t-20.5 -89.5t-38.5 -84t-61 -72t-86 -57.5t-116.5 -37t-149 -13.5 t-145 26t-104.5 69.5t-67.5 102.5t-38 120t-11 127v105q0 78 33.5 165.5t76.5 148.5q6 9 24.5 32t29.5 41t11 31q0 15 -24.5 23.5t-62.5 8.5h-175z" />
<glyph unicode="&#xe03;" horiz-adv-x="1084" d="M58 978v267q27 0 51 -18t51 -49q18 -22 42 -70q34 49 58 70q17 14 32 25t34.5 21.5t42.5 15.5t48 5q22 0 48.5 -8t56 -28t53 -49t39.5 -76t16 -104q0 -50 -13 -98.5t-34 -86t-48 -64.5q-20 -20 -40 -47.5t-40 -77.5t-20 -98v-83q0 -98 30.5 -140t95.5 -42q59 0 92.5 51 t33.5 139v812h301v-802q0 -72 -13 -136.5t-44 -126t-79 -105.5t-122.5 -71t-168.5 -27q-70 0 -129 14t-102 38t-77 58.5t-55.5 73t-36 84t-20 89.5t-5.5 91v97q0 22 2 43t3.5 37t8 36.5t9.5 31.5t13 32t12.5 27.5t16 29t16 26.5t18.5 29t17 27q8 14 32.5 42.5t43 52 t18.5 34.5q0 13 -8.5 21.5t-25 6.5t-34.5 -20q-9 -9 -25 -29t-25 -29q-3 -3 -6.5 -7.5t-6.5 -8t-6.5 -8t-6.5 -8.5q-15 23 -37 45q-50 45 -107 45z" />
<glyph unicode="&#xe04;" horiz-adv-x="1281" d="M97 0v844q0 71 28 137t79 118t118 91t149 60t169 21q105 0 203.5 -32t174.5 -87t121.5 -136t45.5 -172v-844h-302v844q0 58 -66.5 106t-176.5 48q-57 0 -104 -13.5t-76.5 -35.5t-45.5 -49.5t-16 -55.5v-214q41 37 87 62q107 66 202 66v-297q-126 0 -226 -46 q-36 -16 -65 -45v-370h-299z" />
<glyph unicode="&#xe05;" horiz-adv-x="1281" d="M97 0v844q0 66 29 141.5t74 137t104.5 102.5t115.5 41q63 0 148 -95q7 -8 34 -39.5t41 -51.5q22 44 62 95q75 93 155 93q51 0 101 -26.5t89.5 -71t70.5 -99.5t47.5 -114.5t16.5 -112.5v-844h-302v844q0 37 -7 67.5t-18.5 49t-25.5 28t-29 9.5q-20 0 -43 -23t-57 -67 q-46 -66 -60 -90l-63 90q-33 42 -58 66t-45 24q-27 0 -54 -41.5t-27 -112.5v-214q35 35 84 62q107 66 207 66v-297q-118 0 -224 -44q-31 -13 -67 -45v-372h-299z" />
<glyph unicode="&#xe06;" horiz-adv-x="1294" d="M58 978v267q27 0 51 -18t51 -49q18 -22 42 -70q28 46 58 72q36 32 73 49.5t84 15.5q98 -5 164.5 -86t66.5 -184q0 -48 -12 -88.5t-30.5 -69t-41.5 -53.5t-45.5 -48t-41 -46.5t-30.5 -55.5t-12 -69l3 -167q26 -31 68 -55q83 -55 194 -55q196 0 196 235v742h302v-789 q0 -87 -19.5 -162.5t-56 -133t-87 -99t-113.5 -63t-134 -21.5q-151 0 -268 118q-47 46 -85 120v-215h-299v571q0 47 11.5 89t30 72.5t41 57t44.5 47.5t40.5 40.5t30.5 39.5t12 40v6.5v7.5v7.5t-2 8t-5.5 6t-9.5 4t-14 1.5q-13 0 -33.5 -16t-38.5 -39q-5 -7 -12.5 -17 l-15 -20l-13.5 -18q-6 5 -16.5 15t-19 17t-16.5 13q-23 16 -32.5 22t-28 14.5t-31.5 8.5z" />
<glyph unicode="&#xe07;" horiz-adv-x="1118" d="M65 863h305l150 -588q18 0 45.5 10.5t62.5 36.5t64 63.5t48.5 99t19.5 136.5q0 64 -14 117t-41 91t-62.5 66t-80 45t-93 25t-102.5 8v270q69 0 138 -10.5t137.5 -34t130 -58t114.5 -85.5t91.5 -113.5t60.5 -144.5t22 -176q0 -100 -32.5 -196t-89 -171.5t-127 -133.5 t-150.5 -89t-156 -31h-231z" />
<glyph unicode="&#xe08;" horiz-adv-x="1236" d="M37 1020q53 72 128 126q174 125 412 125q84 0 164 -25t145.5 -69t121 -104.5t93 -129t58.5 -145t21 -150.5q0 -101 -21.5 -193.5t-70.5 -176t-121 -145t-179 -97.5t-238 -36h-130l-105 412q-4 11 -9.5 16t-9 5.5t-16 0t-18.5 -0.5h-52v272h105q4 0 24.5 0.5t28 0t28.5 -2 t32 -5t31 -10.5t32.5 -17t30.5 -25.5t31 -35t28 -46t27 -58.5l55 -231q29 0 65.5 27.5t70 74.5t56.5 119.5t23 151.5q0 62 -14 114t-36 87.5t-51 63t-57.5 43t-57.5 26t-49 13.5t-33 3q-202 0 -337 -115q-66 -54 -101 -115z" />
<glyph unicode="&#xe09;" horiz-adv-x="1268" d="M58 485v273h194q73 0 118.5 -30t65.5 -86.5t20 -143.5v-73q0 -32 5 -58t12.5 -42t19.5 -27t21 -16.5t23 -8t19 -3t15 -0.5q119 0 217 55q47 26 82 58v357q0 34 -4.5 65.5t-20 68t-41 63t-71.5 44t-107 17.5q-140 0 -288 -73q-59 -26 -131 -70l-107 248q77 56 147 85 q182 83 379 83q162 0 285 -60t191.5 -175t68.5 -271v-765h-301v215q-32 -63 -89 -120q-118 -118 -268 -118q-156 0 -248 102t-92 267v107q0 22 -6.5 27t-30.5 5h-78z" />
<glyph unicode="&#xe0a;" horiz-adv-x="1121" d="M58 975v273h130q97 0 172.5 -16.5t124 -43.5t79.5 -66t44 -81.5t13 -92.5q0 -128 -81 -208l-3 -3q-17 -17 -29 -31t-31.5 -42t-30.5 -62.5t-11 -71.5v-134q0 -35 7 -61.5t18.5 -43.5t28 -28t34 -15.5t38.5 -4.5q47 0 81.5 13.5t53 33t29 52t13 59.5t2.5 66t-3 73.5 t-8 60.5t-12 48t-14 37t-14.5 25t-14 15t-11.5 5v273q35 0 58.5 65t33.5 169t10 240h299q0 -72 -6 -138t-16 -118t-23.5 -98.5t-28.5 -80.5t-30.5 -63t-29.5 -48t-27 -33t-21 -20.5t-12 -8.5h2q8 -5 15.5 -10t26 -22t33.5 -36.5t33.5 -53.5t30.5 -73t21 -96t9 -121 q0 -143 -56 -250.5t-166.5 -167.5t-265.5 -60q-91 0 -163 25t-117 66t-75 97.5t-41.5 115t-11.5 122.5v124q0 74 33.5 170.5t76.5 143.5q4 6 24 31t30.5 42.5t10.5 30.5q0 7 -4.5 12t-14.5 7.5t-19.5 4.5t-26.5 2.5t-27 0.5h-29h-13h-128z" />
<glyph unicode="&#xe0b;" horiz-adv-x="1121" d="M58 978v267q27 0 51 -18t51 -49q18 -22 42 -70q27 45 55 70q78 67 160 67q65 0 114 -40t72 -100.5t23 -129.5q0 -23 -3.5 -46.5t-7 -40t-14.5 -38.5t-15.5 -31.5t-20.5 -32t-20 -27t-23.5 -28.5t-21.5 -26q-1 -3 -8.5 -14t-12 -19t-12 -22t-12.5 -27t-10 -29.5 t-7.5 -35.5t-2.5 -38v-124q0 -86 39 -117.5t116 -31.5q150 0 150 214q0 53 -6 99t-14.5 76.5t-19.5 52.5t-20.5 32t-16.5 10v273q53 0 77.5 130t24.5 344h299q0 -91 -9.5 -173.5t-24.5 -141.5t-34 -109t-38 -82t-37 -55.5t-30 -34t-18 -12.5q5 -2 12.5 -6.5t25 -20t33 -35 t34 -53t32 -73t22.5 -97.5t9 -124q0 -72 -18.5 -141.5t-56 -131.5t-90 -109t-126.5 -74.5t-160 -27.5q-55 0 -103 6.5t-86.5 19t-71 29.5t-57 38.5t-44.5 45.5t-34 52.5t-23.5 56.5t-15 59.5t-8 60.5t-2.5 61v97q0 177 98 328q7 9 34.5 41t48 59.5t20.5 38.5q0 17 -16.5 27 t-38.5 -9l-61 -60q-15 -19 -30 -35q-34 29 -53 43q-61 42 -89 42z" />
<glyph unicode="&#xe0c;" horiz-adv-x="1957" d="M58 923q51 98 130 173q186 175 430 175q84 0 166 -19t153.5 -56t125.5 -88t85.5 -119.5t31.5 -144.5v-469q21 -33 46 -55q62 -52 185 -52q23 0 40 2.5t35.5 11t31 25t22.5 42t15 64.5t5 90v742h301v-820q0 -56 -13.5 -116t-43 -119t-70 -105t-99.5 -74.5t-127 -28.5 q-167 0 -263 115q-47 56 -65 118v-215h-302v791q0 99 -70 153t-190 54q-117 0 -185 -38q-29 -16 -37 -37l162 -132q-33 -29 -50 -55q-47 -82 -47 -154v-254q0 -50 37 -53h79v-275h-121q-31 0 -50 0.5t-52.5 5.5t-56 13.5t-49 26.5t-42.5 43t-27 63.5t-11 88.5v341 q0 75 20 154q17 46 22 55q-7 5 -77 67q-75 61 -75 65z" />
<glyph unicode="&#xe0d;" horiz-adv-x="1968" d="M58 923q51 98 130 173q186 175 428 175q70 0 139 -13.5t131 -38.5t115.5 -63t92.5 -84.5t61.5 -105t22.5 -122.5v-411q0 -45 12.5 -76.5t30 -48t46.5 -25.5t50.5 -11t53.5 -2q85 0 139 50q26 22 48 52v873h301l10 -967q2 -122 -28 -225t-82 -174t-120 -121t-141.5 -73 t-147.5 -23q-179 0 -322 78q-60 31 -113 80l60 162q43 -48 73 -66q95 -66 208 -66q130 0 212.5 90.5t82.5 251.5v23q-25 -73 -65 -120q-21 -26 -42 -45t-49 -37.5t-63.5 -28.5t-75.5 -10q-77 0 -141 26t-108.5 70t-75.5 104t-46 128t-15 141v348q0 42 -12.5 76t-34 56 t-47.5 37.5t-56 23.5t-55 11t-49 3q-117 0 -186 -38q-29 -16 -37 -37l163 -132q-35 -29 -50 -51q-48 -71 -48 -158v-254v-7q0 -16 1 -23.5t7 -14.5t19 -8h90v-275h-158q-254 0 -254 241v341q0 75 20 154q10 26 24 55q-7 5 -76 67q-19 15 -36.5 30t-27 24.5t-9.5 10.5z" />
<glyph unicode="&#xe0e;" horiz-adv-x="1276" d="M58 923q54 103 128 173q38 36 77.5 64.5t91.5 55t116 41t134 14.5q60 0 125.5 -13.5t129.5 -38.5t122 -63.5t102 -84.5t70 -105t26 -122v-1046q0 -22 -2 -45t-10.5 -58.5t-22.5 -67t-40 -64.5t-61 -56.5t-88 -39t-118 -15.5q-107 0 -208 73q-43 27 -90 74 q-61 -42 -134 -74q-66 -32 -148 -52.5t-166 -20.5v273q158 0 311 75q68 33 135 80q41 -47 65 -66q76 -66 160 -66q32 0 53 6.5t33.5 17t19 32.5t8 43t1.5 58v886q0 65 -33.5 112.5t-93 71t-138.5 23.5q-107 0 -175 -38q-31 -17 -42 -37l162 -132q-23 -19 -42 -46 q-41 -69 -41 -163v-341q0 -72 -16.5 -119.5t-52 -74t-82.5 -37t-117 -10.5h-142v268h80q7 0 11.5 2.5t7 5t3.5 8.5t1 9.5v12.5v14v262q0 75 20 154q17 46 22 55q-7 5 -77 67q-75 61 -75 65z" />
<glyph unicode="&#xe0f;" horiz-adv-x="1276" d="M58 923q50 102 128 173q185 175 444 175q79 0 158.5 -19t149.5 -56.5t124.5 -88t86 -119t31.5 -144.5v-1046q0 -20 -2.5 -43.5t-11 -58.5t-22 -66.5t-39.5 -65t-60 -57.5t-86 -39.5t-115 -15.5q-68 0 -141 73q-31 31 -63 77l-100 -108l-89 105q-73 -47 -131 -74 q-58 -31 -120.5 -52t-107.5 -21v273q132 0 256 80q54 34 103 82l87 -112l99 141q1 -1 8.5 -15t16.5 -29t22.5 -36.5t28.5 -40t32 -35t36 -26t37 -9.5h4q11 0 18 0.5t17 4.5t15.5 15.5t5.5 29.5v1016q0 89 -67 148t-181 59q-118 0 -192 -38q-31 -17 -42 -37l172 -132 q-27 -19 -46 -46q-47 -71 -47 -163v-341q0 -52 -13 -94.5t-40 -76t-73 -52t-108 -18.5h-176v268h80q8 0 13.5 2.5t7 8t2.5 8.5t0.5 12t-0.5 11v278q0 83 20 152q3 6 7 16.5t8 19t7 15.5q-7 5 -77 67q-75 61 -75 65z" />
<glyph unicode="&#xe10;" horiz-adv-x="1233" d="M32 1015q31 64 108 128q164 128 421 128q105 0 234 -47q49 16 65 54.5t16 116.5h299q0 -106 -53 -199.5t-126 -115.5q88 -83 135 -203t47 -229q0 -140 -37 -252.5t-98.5 -185t-145 -121t-173 -69t-186.5 -20.5h-121l-100 390q-1 5 -4 15.5t-4.5 13t-5 7t-9 6t-14.5 1.5 h-73v272h133q22 0 38 -1t41 -5.5t45 -13t43.5 -25t41.5 -39t34.5 -57.5t27.5 -79l49 -210q29 0 65.5 27.5t71 74.5t58 119.5t23.5 151.5q0 62 -13.5 114t-34.5 87t-50.5 62.5t-58.5 43t-60.5 25t-55.5 13t-44 3.5q-187 0 -320 -123q-59 -55 -94 -123zM90 -275q156 0 256 95 q48 48 71 93l96 -136l98 136q0 -4 17.5 -33t42.5 -64t58 -63t59 -28q12 0 25 9t13 28v196h299v-213q0 -36 -9 -73.5t-32 -77.5t-57.5 -71t-89 -51t-122.5 -20q-103 0 -162 73q-30 34 -45 77l-95 -102l-96 92q-47 -47 -94 -72q-119 -68 -233 -68v273z" />
<glyph unicode="&#xe11;" horiz-adv-x="1268" d="M58 978v267q27 0 51 -18t51 -49q18 -22 42 -70q30 43 60 70q24 21 42.5 33.5t46 23t55.5 10.5q30 0 55.5 -9t48 -30t35.5 -60t13 -93q37 58 87 108q110 110 220 110q61 0 112.5 -29.5t86.5 -77t60 -108t36 -121t11 -117.5v-818h-301v740q0 60 -6.5 104.5t-17 69t-26.5 39 t-30 18.5t-32 4q-46 0 -88 -18t-74 -50t-59.5 -73.5t-47 -89t-35 -95.5t-24.5 -95.5t-13.5 -86.5t-4.5 -69v-18q0 -4 -0.5 -9.5t-0.5 -9t1 -4.5v-357h-302v335q0 89 17.5 171t43.5 139.5t56.5 110.5t57 88.5t44 69t17.5 56.5q0 28 -31 28q-29 0 -72 -55q-24 -29 -41 -52 q-13 15 -39 42q-2 1 -10.5 7t-10.5 7t-9.5 6.5t-11 7t-11 5.5t-12.5 5t-12 3.5t-14 3t-14 0.5z" />
<glyph unicode="&#xe12;" horiz-adv-x="1949" d="M58 635q0 100 14 189.5t39 157.5t59 122.5t74.5 89.5t85 53.5t90.5 18.5q28 0 64.5 -27t71.5 -68q6 -8 33 -39.5t41 -51.5q18 31 62 95q35 44 67 68.5t67 24.5q65 0 129.5 -37t111 -95t75.5 -130.5t29 -140.5v-490q24 -32 59 -55q74 -55 175 -55q22 0 38.5 2t32.5 8.5 t27 17t20.5 28.5t15.5 43t9 59.5t3 79.5v742h302v-820q0 -57 -10 -116t-34.5 -119.5t-60 -107t-91.5 -76t-124 -29.5q-162 0 -280 123q-52 55 -82 125v-225h-301v865q0 61 -29.5 97t-52.5 36q-10 0 -21.5 -6.5t-26.5 -23t-23 -26.5t-27 -34q-46 -66 -60 -90q-14 20 -36.5 51 t-27.5 39q-33 42 -58 66t-45 24q-103 0 -103 -363q0 -33 0.5 -58.5t5 -69t12.5 -76t24 -70t38 -61.5t56.5 -40.5t78.5 -16.5t115 32q22 10 63 32v-270q-19 -18 -50 -32q-51 -28 -128 -28q-108 0 -201.5 43t-164 124t-111 207.5t-40.5 283.5z" />
<glyph unicode="&#xe13;" horiz-adv-x="1954" d="M58 923q54 103 128 173q172 172 407 175q62 0 126 -10t131 -30.5t125 -55.5t103.5 -80.5t72.5 -110.5t27 -140v-341q0 -45 3 -79t8.5 -59t16.5 -42t23.5 -27.5t33 -16t41 -7.5t52.5 -2q85 0 147 53q18 15 55 52v870h301v-1245h-301v215q-18 -63 -67 -120 q-98 -118 -261 -118q-78 0 -141 29.5t-102 76t-65 107t-36 119t-10 116.5v366q0 47 -18.5 84.5t-46.5 60t-65.5 37t-73 20t-72.5 5.5q-107 0 -170 -38q-23 -13 -37 -37l163 -132q-34 -29 -50 -55q-48 -82 -48 -154v-254q0 -50 37 -53h80v-275h-105q-24 0 -39 0.5t-42 2.5 t-45.5 6.5t-43.5 12.5t-42.5 20t-36.5 30.5t-30 41.5t-18.5 55.5t-7.5 71.5v341q0 75 21 154q17 46 21 55q-7 5 -76 67q-19 15 -36.5 30t-27 24.5t-9.5 10.5z" />
<glyph unicode="&#xe14;" horiz-adv-x="1268" d="M58 635q0 122 31 226.5t85 179t126.5 127t155 78t170.5 25.5q115 0 215 -30t173 -85t115 -135.5t42 -176.5v-844h-301v800q0 41 -10 73.5t-28.5 53.5t-41 35.5t-51.5 22t-55.5 10.5t-57.5 3q-26 0 -56 -7.5t-69 -31.5t-69 -62t-51 -106t-21 -156q0 -36 1 -67t6.5 -72.5 t14 -74.5t25 -67.5t38.5 -57.5t55 -38t75 -15q80 0 133 32q22 10 45 32v-267q-21 -21 -48 -32q-55 -31 -142 -31q-119 0 -215.5 51t-159.5 140.5t-96.5 208.5t-33.5 258z" />
<glyph unicode="&#xe15;" horiz-adv-x="1268" d="M58 635q0 100 14 189.5t39 157.5t59 122.5t74.5 89.5t85 53.5t90.5 18.5q53 0 133 -95q7 -9 18 -21.5t19.5 -22t19.5 -22.5t20 -25q18 31 62 95q35 44 67 68.5t67 24.5q68 0 132.5 -37t110.5 -95.5t74 -130.5t28 -140v-865h-301v865q0 34 -10.5 61.5t-25.5 42t-29 22 t-24 7.5q-4 0 -8.5 -1.5t-10 -6t-10.5 -9t-11.5 -12t-12 -13.5t-13 -15.5t-12.5 -16t-13 -16.5q-46 -66 -60 -90q-14 20 -36.5 51t-27.5 39q-33 42 -58 66t-45 24q-106 0 -106 -368q0 -193 57 -290t161 -97q44 0 115 32q22 10 63 32v-270q-30 -21 -55 -32q-63 -28 -153 -28 q-141 0 -252 83.5t-173 234t-62 340.5z" />
<glyph unicode="&#xe16;" horiz-adv-x="1276" d="M58 923q51 98 134 173q186 175 426 175q84 0 166 -19t153.5 -56t125.5 -88t85.5 -119.5t31.5 -144.5v-629q0 -34 -22 -68t-60 -74q-54 -55 -78 -73h-142v791q0 71 -32.5 118t-89.5 68t-138 21q-117 0 -185 -38q-29 -16 -37 -37l162 -132q-33 -29 -50 -55 q-47 -82 -47 -154v-252v-6q0 -17 0.5 -24.5t7 -14.5t19.5 -7l89 -3v-275l-207 3q-41 1 -76.5 15t-64 42t-45 74.5t-16.5 106.5v341q0 75 20 154q17 46 22 55q-7 5 -77 67q-75 61 -75 65z" />
<glyph unicode="&#xe17;" horiz-adv-x="1254" d="M97 0v1245h301v-217q28 71 74 120q108 123 270 123q87 0 165.5 -40t132.5 -104t86 -145.5t32 -163.5v-818h-300v740q0 18 -1 32t-2.5 32.5t-5.5 32.5t-9.5 30.5t-14.5 29.5t-21 25.5t-28.5 22t-37 16.5t-46.5 10.5t-57 3.5q-89 0 -172 -57q-46 -36 -65 -58l-2 -860h-299z " />
<glyph unicode="&#xe18;" horiz-adv-x="1176" d="M58 918q0 86 41.5 154t115.5 111t172 65.5t213 22.5q180 0 357 -65q73 -26 136 -63v-288q-47 40 -123 73q-148 73 -370 73h-41.5t-40.5 -1t-42 -3t-36 -6t-33.5 -10t-24 -14.5t-17.5 -21t-5 -27.5q0 -22 21 -36t57.5 -20.5t85 -13t103.5 -11.5t112.5 -18.5t112 -31.5 t103 -52t85 -79t58 -114.5t21.5 -156.5q0 -49 -14 -97.5t-40 -94.5t-68 -85t-94.5 -68.5t-123 -46t-149.5 -16.5q-552 0 -552 421v92h307v-92q0 -25 4.5 -46t10.5 -36t18 -27t21.5 -19.5t27 -13t29 -8t32 -4t31.5 -1.5h33h2.5h3h2.5q39 0 74 7t69 22.5t54.5 46t20.5 71.5 q0 36 -11 64t-36.5 47.5t-49 32t-69 23t-73.5 15.5t-84 13q-46 6 -70 10t-68 12.5t-68.5 17t-60.5 23t-57 30.5t-45.5 40t-37.5 52.5t-21.5 66t-8.5 81.5z" />
<glyph unicode="&#xe19;" horiz-adv-x="1254" d="M97 428v791h301v-742q0 -43 10.5 -77t25 -55.5t36.5 -37t39 -22.5t39 -10.5t29.5 -4t17.5 -0.5q106 0 193 58q49 33 70 57l2 834h298v-1219h-300v218q-37 -72 -82 -121q-55 -54 -120 -87t-156 -33q-85 0 -161.5 40t-128.5 104.5t-82.5 145t-30.5 161.5z" />
<glyph unicode="&#xe1a;" horiz-adv-x="1228" d="M97 443v802h301v-812q0 -43 13 -79.5t33.5 -60t45.5 -37t50 -13.5h110q74 0 127.5 52t53.5 138v815h302v-805q0 -62 -16.5 -126t-51.5 -125.5t-84 -109t-120 -76.5t-153 -29h-183q-87 0 -160 29t-121.5 76.5t-82.5 109t-49 125t-15 126.5z" />
<glyph unicode="&#xe1b;" horiz-adv-x="1228" d="M97 443v802h301v-812q0 -84 47.5 -137t107.5 -53h110q68 0 118 52.5t50 137.5v1153h302v-1143q0 -63 -16 -126.5t-51 -125t-86 -109t-127.5 -76.5t-167.5 -29h-185q-77 0 -144.5 29t-114 76.5t-79.5 109t-49 125.5t-16 126z" />
<glyph unicode="&#xe1c;" horiz-adv-x="1456" d="M97 920q0 164 71.5 244.5t188.5 80.5h165v-275l-97 3q-25 0 -31 -11.5t-4 -43.5q11 -219 40 -341q12 -71 31 -114l169 407h141l165 -407q22 43 50 148q51 197 75 634l300 3q-10 -500 -140 -923q-66 -204 -128 -325h-197l-188 438l-188 -438h-197q-61 109 -113 268 q-113 313 -113 652z" />
<glyph unicode="&#xe1d;" horiz-adv-x="1451" d="M97 920q0 161 66 243t180 82h177v-275l-98 3q-15 0 -22 -4t-9.5 -14.5t-2.5 -34.5q0 -197 34 -343q16 -66 36 -114l168 407h142l165 -407q31 68 58 213q60 337 60 910h305q0 -689 -132 -1214q-65 -244 -131 -372h-200l-188 438l-189 -438h-196q-58 105 -113 270 q-110 335 -110 650z" />
<glyph unicode="&#xe1e;" horiz-adv-x="1556" d="M18 1245h299l213 -729l148 729h200l150 -729l212 729h299l-359 -1245h-260l-142 676l-146 -676h-252z" />
<glyph unicode="&#xe1f;" horiz-adv-x="1653" d="M18 1245h299l213 -729l148 729h203l147 -729l308 1070h300l-456 -1586h-260l-142 653l-138 -653h-260z" />
<glyph unicode="&#xe20;" horiz-adv-x="1276" d="M58 923q50 95 128 173q175 175 409 175q121 0 227.5 -30.5t186 -84.5t125.5 -135t46 -177v-629q0 -60 -79 -145q-43 -42 -78 -70h-145v791q0 55 -21.5 95.5t-60.5 64.5t-89 35.5t-112 11.5q-84 0 -152 -38q-24 -14 -47 -37l162 -132q-23 -19 -42 -46q-41 -69 -41 -163 v-341q0 -97 -64 -170.5t-143 -73.5l-203 -2v278h80q5 0 9 1.5t7 3t5 5t2.5 6t1 8t0.5 8v10v10.5l-5 257q-2 65 21 154q9 26 24 55q-7 5 -77 67q-75 61 -75 65z" />
<glyph unicode="&#xe21;" horiz-adv-x="1254" d="M97 0v1245h301v-810q33 -29 72 -55q79 -55 148 -55q71 0 119.5 15.5t74 45.5t36 66t10.5 83v710h300v-820q0 -51 -15.5 -110t-49.5 -119t-80 -109t-113.5 -79.5t-144.5 -30.5q-170 0 -278 118q-52 52 -79 120v-215h-301z" />
<glyph unicode="&#xe22;" horiz-adv-x="1189" d="M58 385q0 155 157 252q66 44 157 63q-73 10 -144 45q-42 22 -71 47t-51 66t-22 90q0 71 27.5 133t71.5 103.5t100.5 65.5t114.5 24q85 0 195 -29q48 -12 80 -26v-288q-14 6 -78 34q-78 33 -125 33q-1 0 -7 0.5t-9 0t-10 -0.5t-11.5 -1t-11.5 -3t-11.5 -4.5t-9.5 -6 t-8 -8.5t-5 -12t-2 -15q0 -23 8 -40.5t19.5 -30t33.5 -20.5t43 -13t54.5 -7.5t60.5 -3t69 -0.5v-270q-46 0 -87 -5t-72.5 -14t-57 -22t-43.5 -28t-30 -33t-17.5 -37t-5.5 -39q0 -36 12.5 -63t31 -41t46.5 -22t50 -10t50 -2q69 0 123 21.5t86 64t32 100.5v812h302v-802 q0 -64 -16.5 -126.5t-57 -125t-101 -109t-155.5 -76t-213 -29.5q-90 0 -164.5 16t-127.5 45t-92.5 67t-62.5 84.5t-34 95t-11 100.5z" />
<glyph unicode="&#xe23;" horiz-adv-x="1071" d="M97 76v252q56 -23 115 -43q146 -42 251 -42q51 0 86.5 6t65 21t44 43.5t14.5 71.5q0 30 -16 53t-43.5 37t-64.5 27t-78.5 22.5t-85 25.5t-85 33.5t-78.5 48t-64.5 68.5t-44 95t-16.5 128q0 67 33 130t91 111.5t143 77.5t184 29q159 0 275 -52q43 -18 100 -53v-290 q-37 32 -90 60q-118 62 -283 62q-152 0 -152 -90q0 -25 20 -44t53 -33t76.5 -27t91.5 -29t95.5 -36t91 -51.5t77 -71t53 -99t19.5 -132.5q0 -39 -5 -76t-19.5 -78.5t-37 -77.5t-59 -69t-84 -56t-114.5 -37t-148 -14q-182 0 -298 49q-48 13 -113 50z" />
<glyph unicode="&#xe24;" horiz-adv-x="1276" d="M58 923q51 98 134 173q186 175 416 175q73 0 144 -13.5t134.5 -39t117.5 -63t93 -84t61 -105t22 -122.5v-1177q0 -57 -79 -142q-55 -54 -78 -73h-145v1339q0 207 -283 207q-97 0 -160 -38q-26 -15 -39 -37l160 -132q-28 -24 -48 -55q-47 -82 -47 -154v-252v-6 q0 -17 0.5 -24.5t7 -14.5t19.5 -7l89 -3v-272h-179q-107 0 -168.5 61t-61.5 177v341q0 75 20 154q17 46 22 55q-7 5 -77 67q-75 61 -75 65z" />
<glyph unicode="&#xe25;" horiz-adv-x="1163" d="M58 346q0 75 30.5 142t81 114t115 81t132 50.5t131.5 16.5q168 0 197 8q20 4 20 10v40q0 103 -55.5 145.5t-166.5 42.5q-144 0 -268 -103q-60 -51 -89 -98l-110 264q41 51 116 105q155 107 351 107q92 0 169.5 -17.5t134.5 -50t99.5 -77.5t69 -102t39.5 -121t13 -138 v-765h-303v503q-14 -7 -34 -10q-30 -8 -188 -8q-75 0 -129 -36t-54 -103q0 -44 35 -73.5t108 -29.5q49 0 110 25q40 16 53 25v-283q-13 -9 -43 -18q-56 -18 -148 -18q-120 0 -213.5 42.5t-148.5 128t-55 201.5z" />
<glyph unicode="&#xe26;" horiz-adv-x="1276" d="M58 923q49 100 125 173q186 175 438 175q72 0 149.5 -19t150.5 -56.5t131 -88t93 -119.5t35 -144v-1177q0 -57 -79 -142q-55 -54 -78 -73h-145v1339q0 85 -66.5 146t-179.5 61q-118 0 -192 -38q-28 -16 -44 -37l162 -132q-23 -19 -42 -46q-41 -69 -41 -163v-341 q0 -66 -28 -120t-78.5 -85.5t-113.5 -32.5l-190 -3v273h80q5 0 9 1.5t7 3t5 5t2.5 6t1 8t0.5 8v10v10.5l-5 257q-2 65 21 154q9 26 24 55q-7 5 -77 67q-75 61 -75 65z" />
<glyph unicode="&#xe27;" horiz-adv-x="1158" d="M58 165l110 275q47 -59 94 -100q118 -97 254 -97q25 0 54.5 9t62 27.5t62 49.5t53.5 71t38 97.5t14 123.5q0 78 -20 141t-50.5 102t-69.5 65t-75 36t-69 10q-131 0 -256 -79q-51 -31 -97 -78l-105 262q45 49 115 95q145 96 330 96q128 0 239 -49t190 -134.5t124 -206.5 t45 -260q0 -141 -43.5 -261t-120 -204t-184.5 -131.5t-233 -47.5q-189 0 -340 93q-71 48 -122 95z" />
<glyph unicode="&#xe28;" horiz-adv-x="1281" d="M97 0v844q0 64 22 123.5t60 106t89 84t108.5 62t119 38t120.5 13.5q124 0 199 -26q12 5 21.5 11t16.5 11t12 13t8.5 13.5t6 16t3.5 17.5t2 20.5t1 22v25.5h299q0 -93 -30 -173t-87 -108q41 -32 69 -85.5t38 -99.5t10 -85v-844h-302v844q0 69 -74.5 113t-192.5 44 q-56 0 -100.5 -16.5t-69.5 -42t-37.5 -51t-12.5 -47.5v-189q31 25 84 50q94 53 207 53v-297q-134 0 -229 -44q-41 -20 -62 -42v-375h-299z" />
<glyph unicode="&#xe29;" horiz-adv-x="1228" d="M97 443v802h301v-794q0 -98 46 -153t114 -55h110q72 0 112 48.5t46 138.5l5 108h-236v202h236l-3 508h305v-508h78v-202h-81l-5 -95q-13 -221 -123 -343.5t-292 -122.5h-183q-88 0 -167 34t-137 94.5t-92 148t-34 189.5z" />
<glyph unicode="&#xe2a;" horiz-adv-x="1189" d="M58 346q0 54 13.5 104t38 90t57.5 74t72.5 58t83.5 41.5t89.5 26t90.5 8.5q170 0 223 10q13 1 47 10v40q0 188 -223 188q-144 0 -267 -103q-58 -49 -88 -98l-108 273q38 47 113 101q155 102 350 102q89 0 153 -15q26 10 43 20.5t26 19.5t13.5 25.5t5 28t0.5 37.5v8h302 q0 -157 -175 -239q48 -37 84 -95.5t56 -135t20 -160.5l-3 -765h-302v503q-43 -9 -57 -10q-57 -10 -213 -10q-58 0 -97 -47t-39 -90.5t35 -73t109 -29.5q57 0 110 30q35 15 52 29l3 -292q-16 -6 -55 -18q-56 -18 -113 -18q-72 0 -138 14.5t-123 44.5t-99 73t-66 104.5 t-24 135.5z" />
<glyph unicode="&#xe2b;" horiz-adv-x="1184" d="M97 0v1245h301v-387l397 387h411l-448 -437q32 -6 62 -15.5t66 -27t66 -40t59 -56.5t49.5 -75.5t33 -98.5t12.5 -123v-372h-303l-3 335q0 62 -14.5 114t-37 86t-51.5 59t-54.5 37t-49.5 17l-195 -197l-2 -451h-299z" />
<glyph unicode="&#xe2c;" horiz-adv-x="1653" d="M26 1245h299l213 -729l149 729h201l148 -729l147 477q10 24 10 63q0 46 -21 86.5t-53 68.5q-38 32 -71 52q81 36 142 82q144 112 144 241h310q0 -158 -155 -260q-65 -42 -153 -63q39 -11 69 -33q33 -27 53 -57.5t26 -74.5q2 -22 -1 -49.5t-9 -53t-11.5 -45t-12 -37.5 t-6.5 -20l-256 -893h-260l-142 653l-138 -653h-260z" />
<glyph unicode="&#xe2d;" horiz-adv-x="1263" d="M58 795q18 131 87 238q28 47 67.5 87t96 75.5t134 55.5t168.5 20q95 0 176.5 -22t141.5 -60t108 -90.5t79 -110.5t51.5 -122.5t29.5 -125t9 -119.5q0 -150 -44.5 -272.5t-123.5 -203.5t-188.5 -124.5t-238.5 -43.5q-81 0 -154.5 17t-133 48.5t-108 75.5t-81.5 98t-51 117 t-18 130q0 126 53 184t139 58h320v-272l-162 2q-22 6 -34 -5.5t-6 -33.5q12 -38 34.5 -67t47.5 -45t55.5 -25.5t53.5 -12.5t47 -3q146 0 219 88.5t73 289.5q0 96 -25 171t-67.5 118.5t-93.5 65.5t-108 22q-129 0 -210 -102q-34 -47 -53 -101h-290z" />
<glyph unicode="&#xe2e;" horiz-adv-x="1263" d="M58 797q18 129 87 236q28 48 67 88.5t94.5 75.5t132.5 54.5t166 19.5q43 0 65.5 -0.5t67.5 -8t82 -22.5q17 5 29 12t19.5 18t11.5 20.5t6 28t2 30.5v38v8h290q0 -87 -48.5 -172t-111.5 -107q95 -90 141.5 -219t46.5 -276q0 -150 -44.5 -272.5t-123.5 -203.5 t-188.5 -124.5t-238.5 -43.5q-81 0 -154.5 17t-133 48.5t-108 75.5t-81.5 98t-51 117t-18 130q0 37 5 70t18 65t33.5 55.5t54 37.5t76.5 14h325v-272h-160q-50 0 -39 -40q10 -42 38.5 -73t65 -46.5t69.5 -23t62 -7.5q142 0 217 89.5t75 288.5q0 96 -25 170.5t-67 119.5 t-95 67.5t-113 22.5q-123 0 -204 -102q-34 -47 -53 -102h-290z" />
<glyph unicode="&#xe2f;" horiz-adv-x="1173" d="M58 1245h295q9 -38 14.5 -59.5t15.5 -50.5t19 -44t24 -32.5t32.5 -26t42 -14.5t55.5 -6q80 0 143 60t92 173h287v-802q0 -79 -11.5 -143.5t-30.5 -110t-49 -79.5t-63 -54.5t-75.5 -33.5t-84 -17.5t-91.5 -4.5v273h11q16 -1 23 -0.5t18.5 2.5t16.5 6.5t12 13t10 21 t6.5 31.5t4.5 44.5t1 59.5v364q-30 -21 -66 -37q-84 -36 -190 -36q-64 0 -120.5 16.5t-100 44t-80 66.5t-62.5 82.5t-46.5 94.5t-33 99.5t-19.5 99.5z" />
<glyph unicode="&#xe30;" horiz-adv-x="843" d="M97 425v152h288v-92q0 -35 22 -49t88 -14h253l-113 -265h-237q-301 0 -301 268zM97 1001v139h288v-94q0 -35 22 -49t88 -14h253l-113 -265h-250q-81 0 -139 21.5t-89.5 61.5t-45.5 88.5t-14 111.5z" />
<glyph unicode="&#xe31;" d="M-710 1709v139h293v-87q0 -35 21.5 -48.5t88.5 -13.5h493l-113 -258h-493q-48 0 -87 6.5t-78 24t-65.5 46.5t-43 77.5t-16.5 113.5z" />
<glyph unicode="&#xe32;" horiz-adv-x="1031" d="M58 858v270q46 40 97 70q110 73 248 73q109 0 206 -34t169.5 -95.5t115 -152.5t42.5 -198v-791h-301v765q0 38 -8 70t-22 55.5t-33 42.5t-40 31t-44 20t-44 11t-41 3q-100 0 -233 -70q-58 -30 -112 -70z" />
<glyph unicode="&#xe33;" horiz-adv-x="1031" d="M-643 1711q0 46 14 88.5t39 76.5t58.5 59.5t74.5 39.5t85 14q118 0 197.5 -80t79.5 -198q0 -72 -36.5 -134.5t-101 -99t-139.5 -36.5q-111 0 -191 80t-80 190zM-456 1711q0 -33 22.5 -55.5t55.5 -22.5t56.5 22.5t23.5 55.5q0 32 -24 56t-56 24q-33 0 -55.5 -23.5 t-22.5 -56.5zM58 858v270q46 40 97 70q110 73 248 73q109 0 206 -34t169.5 -95.5t115 -152.5t42.5 -198v-791h-301v765q0 38 -8 70t-22 55.5t-33 42.5t-40 31t-44 20t-44 11t-41 3q-100 0 -233 -70q-58 -30 -112 -70z" />
<glyph unicode="&#xe34;" d="M-1064 1441l113 247h799v-247h-912z" />
<glyph unicode="&#xe35;" d="M-1064 1441l113 260h498v147h301v-407h-912z" />
<glyph unicode="&#xe36;" d="M-1064 1441l110 260h319q-1 8 4 23t5 17q21 73 88 116.5t142 43.5q51 0 93 -15t69 -39.5t46 -56t27.5 -63.5t8.5 -63q0 -51 -24.5 -95t-62 -71t-79 -42t-78.5 -15h-668zM-435 1670.5q0 -15.5 12 -27.5t27.5 -12t27 12t11.5 27.5t-11.5 27t-27 11.5t-27.5 -11.5t-12 -27z " />
<glyph unicode="&#xe37;" d="M-1064 1441l113 260h288v147h202v-147h78v147h231v-407h-912z" />
<glyph unicode="&#xe38;" d="M-527 -195h149q86 0 148.5 -25t98.5 -80.5t36 -137.5v-240h-301v158q0 16 -7 31t-20 24t-30 9h-74v261z" />
<glyph unicode="&#xe39;" d="M-893 -195h180q58 0 115 -21.5t97 -64t40 -94.5q0 -40 6.5 -54t21.5 -14q23 0 30 12.5t7 52.5v183h301v-256q0 -23 -3 -44.5t-13 -48t-25.5 -49t-43 -44.5t-63.5 -37t-89.5 -24.5t-118.5 -9.5q-149 0 -228 52.5t-79 133.5q0 25 -16 44.5t-41 19.5h-78v263z" />
<glyph unicode="&#xe3a;" d="M-396 -195h301v-275h-301v275z" />
<glyph unicode="&#xe3f;" horiz-adv-x="1150" d="M97 0v1405h251v215h295l-3 -225q150 -25 242.5 -126t92.5 -228q0 -107 -54.5 -189.5t-155.5 -111.5q131 -23 209.5 -105t78.5 -210q0 -103 -52 -193.5t-146 -151t-212 -75.5v-223h-295v218h-251zM398 268h127q63 0 110 16t71 42t35.5 51t11.5 48q0 26 -6.5 49.5t-24 47.5 t-45.5 41.5t-74.5 28.5t-107.5 11h-97v-335zM398 876h82q11 0 22 0.5t31.5 3.5t37.5 8t37 15.5t33.5 24.5t22.5 36.5t9 50.5q0 27 -10 48t-28 33t-36.5 20t-41 11.5t-35.5 4.5t-27 1h-97v-257z" />
<glyph unicode="&#xe40;" horiz-adv-x="560" d="M97 241v1004h301v-920v-6q0 -13 0.5 -18.5t3 -13t8 -11t15.5 -3.5h78v-273h-178q-33 0 -64 7t-61.5 24.5t-52.5 44t-36 69t-14 96.5z" />
<glyph unicode="&#xe41;" horiz-adv-x="1084" d="M97 241v1004h301v-920v-6q0 -13 0.5 -18.5t3 -13t8 -11t15.5 -3.5h78v-273h-201q-84 0 -144.5 63.5t-60.5 177.5zM621 241v1004h302v-920v-10.5v-10t0.5 -8t1.5 -8t2.5 -6t4.5 -5t7 -3t9 -1.5h80v-273h-200q-85 0 -146 63.5t-61 177.5z" />
<glyph unicode="&#xe42;" horiz-adv-x="698" d="M183 1533q0 60 28 111.5t79 90.5t129.5 61.5t173.5 22.5h390v-268h-202q-74 0 -125.5 -2t-91.5 -8t-59.5 -17t-19.5 -28q0 -23 8.5 -59.5t18 -72.5t18 -101.5t8.5 -139.5v-800q0 -4 -0.5 -10t-0.5 -8.5t0.5 -7.5t1 -7.5t2 -6t3 -5.5t4.5 -4t6.5 -2.5t8.5 -1.5h80v-270 h-205q-80 0 -141 72t-61 169v882q0 95 -13.5 176.5t-26.5 139t-13 94.5z" />
<glyph unicode="&#xe43;" horiz-adv-x="885" d="M0 1618q39 60 95 115q115 115 245 115q66 0 127 -13.5t117.5 -44.5t98 -76t66 -113t24.5 -151q0 -51 -7.5 -95.5t-17 -74t-17.5 -88t-8 -136.5v-721v-6q0 -13 0.5 -18.5t3 -13t8 -10.5t15.5 -4h78v-283h-191q-93 0 -154 70t-61 171v815q0 89 12.5 164.5t25 131.5t12.5 98 q0 8 -1 16.5t-4.5 21t-9.5 24.5t-16.5 23.5t-23.5 20.5t-33 14.5t-44 5.5q-83 0 -170 -108q-43 -60 -68 -107z" />
<glyph unicode="&#xe44;" horiz-adv-x="961" d="M0 1551v270q17 0 35.5 -4t35.5 -11t35 -17t33.5 -21t31 -23.5t27.5 -23t24 -22t19.5 -19l14 -14t6.5 -7.5q20 45 50 79q38 38 78.5 59.5t102.5 21.5q63 0 115 -25.5t87 -67t59 -97t35 -114.5t11 -120v-1067v-9.5v-9v-7.5t1 -7.5t2 -6t3 -5t4.5 -3.5t6.5 -3t9 -2h79v-275 h-184q-105 0 -164 68.5t-59 172.5v1154v24v24.5v23t-2 23t-4.5 19.5t-7 17.5t-11 13t-15.5 9t-20 2.5q-22 0 -46 -27t-54 -74q-35 -57 -53 -100q-21 53 -62 100q-91 101 -223 101z" />
<glyph unicode="&#xe45;" horiz-adv-x="1031" d="M58 858v270q52 45 97 70q115 73 273 73q99 0 191 -34.5t162 -95t112.5 -152t42.5 -198.5v-1124q0 -59 -78 -142q-50 -50 -80 -73h-143v1313q0 42 -9.5 76.5t-25 58t-37 41.5t-42.5 28.5t-44.5 17.5t-41 9t-32.5 2q-100 0 -233 -70q-58 -30 -112 -70z" />
<glyph unicode="&#xe46;" horiz-adv-x="1189" d="M58 896q0 45 11 90.5t31 87t50 77.5t66 62.5t81 42t93 15.5q15 0 30 -7.5t31 -22.5t29 -29.5t31 -36.5q53 -76 64 -95q27 47 65 95q76 96 125 96q62 0 116 -24t92 -63t65.5 -88t41 -100.5t13.5 -99.5v-1229q0 -59 -78 -142q-50 -50 -79 -73h-145v1392q0 36 -4 64.5 t-9.5 45t-13.5 27t-14.5 14t-13.5 3.5q-5 0 -12 -5.5t-17.5 -17.5t-18.5 -22.5t-22.5 -30.5t-22.5 -31q-3 -4 -29 -43t-39 -62q-11 17 -24.5 36.5t-26.5 37.5t-21 31l-16.5 22t-17 22.5t-15 19.5t-14 18t-11.5 13t-10 9t-7 3q-19 -4 -27 -12q-25 -26 -25 -90q0 -40 12 -67.5 t34 -55.5q20 -24 47 -40l-100 -240q-87 28 -148 75q-147 122 -147 328z" />
<glyph unicode="&#xe47;" d="M-1015 1683q0 134 81 200.5t229 72.5l210 5q96 0 199 83q47 34 84 85v-288q-38 -15 -84 -27q-105 -26 -199 -26h-183q-72 0 -102 -30t-30 -75q0 -28 21.5 -53.5t57.5 -25.5q19 0 34.5 9t24 20t19.5 28q12 27 23 62h72q4 -35 15 -62q9 -24 22.5 -40.5t27.5 -16.5 q26 0 43.5 15t26 41.5t8.5 62.5h203q0 -41 -11 -81.5t-33 -76.5t-52 -63.5t-71.5 -44t-87.5 -16.5q-53 0 -96 55q-24 29 -37 55q-16 -30 -40 -55q-55 -55 -118 -55q-110 0 -183.5 67t-73.5 175z" />
<glyph unicode="&#xe48;" d="M-396 1441v407h301v-407h-301z" />
<glyph unicode="&#xe49;" d="M-776 1586v262h299q40 0 72.5 -28t32.5 -66q0 -23 15 -39t37 -14l428 -2l-108 -258h-506q-14 0 -27.5 2t-27.5 5.5t-25.5 10.5t-20.5 17t-14 24.5t-5 32.5q0 53 -47 53h-103z" />
<glyph unicode="&#xe4a;" d="M-960 1604q0 59 25 107.5t63.5 78t82 45.5t84.5 16q49 0 89 -58q19 -33 28 -57q15 34 30 55q35 57 88 57q43 0 91.5 -17t83.5 -46.5t35 -59.5q0 -18 5.5 -22.5t20.5 -3.5h4h338l-108 -258h-320q-23 0 -42.5 8.5t-32.5 22.5t-22.5 31t-15 35.5t-8 35t-2.5 30.5 q0 20 -5.5 38t-18 29.5t-28.5 11.5t-26.5 -6t-14.5 -19t-5.5 -24.5t-1.5 -29.5h-89v12.5v14.5t-1 13t-2.5 13t-5 10t-8.5 9t-12.5 5t-16.5 2q-22 0 -37.5 -24.5t-15.5 -54.5q0 -48 58 -110q37 -37 60 -53h-260q-19 16 -45 53q-42 66 -42 110z" />
<glyph unicode="&#xe4b;" d="M-527 1513v261h131v74h301v-76h130v-259h-130v-72h-301v72h-131z" />
<glyph unicode="&#xe4c;" d="M-723 1441v113q0 63 43.5 132t115 115.5t142.5 46.5h244l-113 -262h-47q-51 0 -66.5 -23t-15.5 -77v-45h-303z" />
<glyph unicode="&#xe4d;" d="M-643 1709q0 45 14 88t39 77t58.5 59.5t74.5 39.5t85 14q118 0 197.5 -80t79.5 -198q0 -111 -81 -190.5t-196 -79.5q-111 0 -191 79.5t-80 190.5zM-456 1709q0 -22 10.5 -40t28 -28t39.5 -10q33 0 56.5 22.5t23.5 55.5q0 31 -24 55t-56 24q-21 0 -39.5 -11t-28.5 -29 t-10 -39z" />
<glyph unicode="&#xe4e;" d="M-748 1599q0 54 19 98.5t49.5 72.5t70 47.5t78.5 27.5t78 8q0 53 49.5 91t121.5 55t154 17v-150q-83 0 -131 -59.5t-48 -191.5q-149 0 -149 -99q0 -38 21 -58q13 -14 23 -17h-275q-13 13 -24.5 30t-24 52.5t-12.5 75.5z" />
<glyph unicode="&#xe4f;" horiz-adv-x="1301" d="M97 530q0 113 44 215.5t118 176.5t176.5 117.5t214.5 43.5q114 0 217 -43.5t177.5 -117.5t118 -176.5t43.5 -215.5t-43.5 -215.5t-118 -176.5t-177.5 -117.5t-217 -43.5q-112 0 -214.5 43.5t-176.5 117.5t-118 176.5t-44 215.5zM298 530q0 -94 47.5 -175.5t129 -129 t175.5 -47.5q97 0 178 47.5t127 128.5t46 176q0 97 -46.5 177.5t-127 127t-177.5 46.5q-95 0 -175.5 -46.5t-128.5 -127t-48 -177.5zM412 530q0 100 69 169t169 69t169 -69t69 -169q0 -66 -31.5 -121t-86 -86.5t-120.5 -31.5q-99 0 -168.5 69.5t-69.5 169.5z" />
<glyph unicode="&#xe50;" horiz-adv-x="1254" d="M58 527q0 90 29 175.5t82 154.5t123 121.5t156 81t175 28.5q113 0 218.5 -45t183.5 -120.5t125.5 -179.5t47.5 -216q0 -90 -31.5 -175t-87.5 -152.5t-129 -118.5t-161 -79t-178 -28q-113 0 -215 44t-176.5 117.5t-118 176t-43.5 215.5zM357 530q0 -121 79 -207.5 t194 -86.5q112 0 192 87t80 207q0 118 -80 204t-192 86q-115 0 -194 -85.5t-79 -204.5z" />
<glyph unicode="&#xe51;" horiz-adv-x="1254" d="M58 623q0 90 44 175t117.5 148t176.5 101t215 38q99 0 189 -27.5t162.5 -80t125.5 -125t81.5 -165t28.5 -197.5q0 -94 -25.5 -176t-68 -141t-99.5 -106.5t-117 -77.5t-124 -50t-117.5 -28t-98.5 -8q-5 0 -78 1t-80 1l77 258h10q47 0 100.5 10.5t111 35.5t103 61.5 t75 93.5t29.5 126q0 80 -23.5 143.5t-63.5 102.5t-90.5 59t-108 20t-106.5 -18t-79.5 -46t-47.5 -61.5t-17 -66.5q0 -42 9.5 -73.5t23.5 -47t26 -23t21 -7.5t16 2.5t11 9t6 12t3 18.5t1.5 21t-0.5 26v10v50h301v-113q0 -22 -3 -46t-13 -54.5t-25 -58.5t-41.5 -55.5t-61 -47 t-84.5 -32t-110 -12.5q-46 0 -96 14.5t-102 47.5t-92.5 80t-66 120t-25.5 159z" />
<glyph unicode="&#xe52;" horiz-adv-x="1530" d="M18 1340v266h40q74 0 146.5 -30.5t127 -79t97 -106.5t65 -116.5t22.5 -104.5v-697q0 -63 14 -109t38.5 -71.5t52.5 -37t60 -11.5h344q46 0 79 19t50 56t17 90v263v29t-0.5 29.5t-1.5 31t-2.5 29t-4.5 28.5t-7 25t-9.5 22t-12.5 16t-16.5 11.5t-20.5 3.5q-47 0 -84 -52 l-21 -30t-16 -23q-20 35 -34 53q-37 52 -81 52q-31 0 -51.5 -34.5t-20.5 -80.5q0 -20 9 -36t21 -26t33 -17t37.5 -10.5t43 -5t40.5 -1.5h39h17v-270q-48 0 -76.5 0.5t-70.5 3t-67.5 7.5t-59.5 14t-54 23t-44 33.5t-38 46.5t-26.5 61.5t-18 79t-5.5 97.5q0 25 5.5 55.5t17 67 t31.5 69.5t47 61t67 45t87 17q25 0 47.5 -11.5t36 -24.5t31.5 -35q24 -31 40 -71q17 34 50 71q65 71 130 71q80 0 143.5 -42.5t99.5 -108.5t54 -136.5t18 -137.5v-283q0 -193 -121.5 -302t-326.5 -109h-417q-46 0 -96.5 17.5t-99.5 53t-87.5 83.5t-62.5 115t-24 142v790 q0 43 -9 71.5t-33 50t-67.5 31t-110.5 9.5z" />
<glyph unicode="&#xe53;" horiz-adv-x="1519" d="M58 535q0 122 26.5 222t78.5 174t134 114t188 40q125 0 225 -147q42 -64 66 -147q23 83 65 147q90 147 223 147q84 0 157.5 -39.5t126.5 -111t84 -175t31 -224.5q0 -209 -84 -393q-34 -81 -84 -142h-283q40 64 73 157q76 186 76 378q0 142 -38.5 212.5t-99.5 70.5 q-31 0 -52.5 -15.5t-35.5 -44t-22 -77.5t-11 -107t-3 -141h-278q0 97 -5 162.5t-18 118.5t-38 78.5t-62 25.5q-15 0 -30 -5t-34.5 -22.5t-34 -46.5t-24.5 -83t-10 -126q0 -145 53.5 -218.5t149.5 -73.5q39 0 103 14q9 3 28.5 8t28.5 8v-241q-13 -17 -38 -29 q-46 -29 -124 -29q-68 0 -137.5 20.5t-136.5 65.5t-119 108.5t-83.5 158.5t-31.5 208z" />
<glyph unicode="&#xe54;" horiz-adv-x="1478" d="M58 522q0 55 4.5 105.5t17.5 106t32.5 102t51.5 89.5t73 73t99 48t127 18h402q37 0 65 4t57 17.5t48 35t31 59.5t12 88v345l303 -7l-5 -455q0 -62 -16 -114t-45 -89t-66 -65t-81.5 -45t-89 -25t-90.5 -8h-417q-106 0 -158.5 -78.5t-52.5 -210.5q0 -137 42.5 -191.5 t158.5 -54.5l325 -2q-65 33 -131 94q-129 124 -129 286h310q0 -111 36 -195.5t108 -133.5t171 -49h130v-270h-904q-114 0 -211 71t-152.5 191.5t-55.5 259.5z" />
<glyph unicode="&#xe55;" horiz-adv-x="1483" d="M58 516q0 53 5.5 105t18.5 107t33.5 103.5t52.5 91.5t72 74t95.5 49t120.5 18h29q0 3 -1 15t-1 19q0 54 20 101.5t54 82t81.5 54.5t101.5 20q108 0 182 -74.5t74 -183.5v-13q19 11 33.5 22.5t24 22.5t16 28t9.5 29t4 35t1 37.5t-0.5 44.5t-0.5 49v260h303v-438 q0 -95 -28.5 -167t-79 -115.5t-115.5 -65.5t-143 -22h-432q-108 0 -165.5 -79.5t-57.5 -209.5q0 -131 40.5 -188.5t147.5 -57.5h340q-63 29 -130 92q-131 126 -131 286h309q0 -79 27.5 -151.5t70 -121t93.5 -77t98 -28.5h156v-270h-903q-70 0 -136 30.5t-117.5 82.5 t-90.5 118t-60 140t-21 145zM660 1080q0 -33 23 -56t57 -23h8q14 3 27 10t22.5 17t15 23.5t5.5 28.5q0 32 -23 55t-55 23q-33 0 -56.5 -23t-23.5 -55z" />
<glyph unicode="&#xe56;" horiz-adv-x="1661" d="M18 1340v269h55q82 0 153 -16.5t126.5 -45.5t102.5 -73.5t82.5 -96t65.5 -117.5t51.5 -133.5t40.5 -148.5q35 31 86 58q123 60 257 60q110 0 203.5 -31t159 -83.5t112.5 -122.5t69 -147t22 -156q0 -73 -17 -143.5t-49 -135t-81.5 -119.5t-110.5 -95t-140.5 -63 t-167.5 -23q-91 0 -172.5 29t-139.5 74t-107 106.5t-80 119t-54 119.5h306q37 -87 102 -134.5t145 -47.5q21 0 47 7t56.5 21.5t58.5 40t51.5 58.5t37.5 81t14 105q0 65 -24.5 118t-64 84.5t-85 48t-91.5 16.5q-58 0 -103 -21.5t-75.5 -62.5t-50 -88.5t-33.5 -110.5h-270 q-20 89 -35 155.5t-33.5 137t-35 121.5t-36.5 103t-40.5 88t-45.5 70t-52 55.5t-60 38.5t-70 24t-80 7z" />
<glyph unicode="&#xe57;" horiz-adv-x="2001" d="M58 535q0 242 105 388.5t280 146.5q39 0 75 -14.5t62 -35.5t51 -52.5t40 -57t29.5 -58.5t19.5 -47.5t11 -32.5q2 -5 2 -7q0 5 8 27.5t22.5 57.5t39 73t54.5 71t73 54.5t90 21.5q173 0 280.5 -145t107.5 -390v-28q0 -70 -1.5 -97.5t-8 -55.5t-22.5 -69q59 8 78 56t19 170 v695q0 85 24.5 153t67.5 114.5t103.5 77t130 44.5t149.5 14h36v-269q-69 0 -110 -7t-63.5 -26t-29.5 -44t-7 -70v-790q0 -74 -26.5 -140t-69 -113t-95 -81.5t-105.5 -51.5t-99 -17h-438q53 85 82 157q83 192 83 378q0 100 -11.5 157t-35.5 81t-66 24q-50 0 -80 -34.5 t-42.5 -100.5t-12.5 -174h-250q0 141 -35.5 225t-100.5 84q-19 0 -31 -2.5t-29 -17t-27.5 -41t-17.5 -77.5t-7 -124q0 -71 16.5 -128t44.5 -92t62 -53.5t70 -18.5t110 19q45 12 63 18v-248q-28 -15 -66 -29q-79 -26 -110 -26q-84 0 -160.5 29t-136 81t-104 121t-68 153 t-23.5 174z" />
<glyph unicode="&#xe58;" horiz-adv-x="1486" d="M58 535q0 82 19 159.5t58 144.5t93 117t128 79t160 29h360q36 0 64.5 4.5t57 18t47.5 35.5t31 60t12 89v342h301v-400q0 -71 -14 -130.5t-37 -101.5t-56.5 -74.5t-69.5 -52t-78 -32.5t-81 -17.5t-80 -4.5h-333q-273 0 -273 -273q0 -70 12 -126t30.5 -88.5t39.5 -49 t41 -16.5q42 0 76 43t60 108q23 58 45 155q31 -77 82 -155q99 -151 193 -151q35 0 59 7.5t43 27t28 57t9 94.5v67h301v-67q0 -456 -440 -456q-128 0 -210 91q-40 46 -65 95q-16 -44 -48 -95q-63 -91 -162 -91q-71 0 -142.5 41.5t-129.5 113t-94.5 178t-36.5 225.5z" />
<glyph unicode="&#xe59;" horiz-adv-x="1766" d="M58 535q0 93 23.5 180.5t63 153t87.5 115.5t98.5 75.5t94.5 25.5q52 0 96.5 -13.5t80.5 -40t62.5 -54.5t53.5 -67q2 118 63 189.5t167 71.5q52 0 102.5 -19t88.5 -45.5t71 -53.5t62 -46t49 -19q16 0 26 16t14 58t4.5 76t0.5 109v11v11v12.5v11.5v320h304v-320 q0 -57 -1.5 -101.5t-9.5 -106.5t-21 -109.5t-38.5 -97.5t-60 -82.5t-87 -53.5t-118.5 -21q-56 0 -110 20t-94.5 47.5t-75 54.5t-63.5 43t-48 10l-3 -1t-5.5 -2t-6.5 -2.5t-6.5 -4l-6.5 -6.5t-6.5 -9t-5 -11.5t-3.5 -15t-1 -18.5q0 -18 3 -26l41 -145q51 -158 190 -655h-297 l-201 705q-10 35 -35.5 64t-53 44t-48.5 15q-13 0 -26 -4.5t-29.5 -15t-30.5 -32.5t-26 -52.5t-19 -79.5t-7 -109q0 -137 51 -214.5t124 -77.5q39 0 105 25l24 9.5t36 15.5v-256q-2 -1 -23 -14.5t-31 -17.5t-32 -12.5t-47.5 -12t-55.5 -3.5q-86 0 -169 45t-145.5 120 t-100.5 179t-38 214z" />
<glyph unicode="&#xe5a;" horiz-adv-x="1593" d="M58 1245h295q12 -50 21.5 -81t24.5 -63.5t34 -49.5t47.5 -28t67.5 -11q57 0 104 26t83.5 78.5t55.5 128.5h287v-802q0 -57 -4.5 -103.5t-16.5 -93.5t-31.5 -82.5t-50.5 -67.5t-72.5 -52.5t-99.5 -32t-130 -11.5v273q9 0 24 -1q14 -2 24.5 0t19 4t14.5 12t10 24.5t6.5 41 t3.5 61t1 85.5v315q-28 -23 -63 -37q-90 -36 -210 -36q-69 0 -129.5 21.5t-105.5 59t-81.5 85.5t-62 106t-41.5 115t-25 116zM1196 0v1248l300 -3v-1245h-300z" />
<glyph unicode="&#xe5b;" horiz-adv-x="2017" d="M97 513q0 87 20.5 168t65 154t108.5 127.5t158 86t206 31.5q277 0 420 -239q59 -105 78 -238h-293q-11 56 -40 107q-65 108 -165 108q-36 0 -72 -11.5t-69 -36.5t-58 -60t-40 -86t-15 -111q0 -57 17 -104.5t44 -78t62.5 -51.5t71 -29.5t70.5 -8.5q78 0 175 82 q43 33 77 80l135 -128l105 133l123 -130l117 139q14 -28 57 -89q69 -90 128 -90q30 0 44 12t14 38q0 58 -55 118l-55 55h288q21 -15 50 -49q52 -61 52 -152q0 -34 -11 -71t-35.5 -75t-59 -68.5t-86 -49.5t-111.5 -19q-83 0 -155 91q-36 51 -55 95l-108 -131l-120 131 l-102 -131l-137 131q-32 -54 -73 -95q-94 -94 -202 -94q-74 0 -143 16.5t-125 45.5t-104.5 68.5t-84 87.5t-61 101t-38.5 109t-13 111z" />
<glyph unicode="&#x2000;" horiz-adv-x="1186" />
<glyph unicode="&#x2001;" horiz-adv-x="2372" />
<glyph unicode="&#x2002;" horiz-adv-x="1186" />
<glyph unicode="&#x2003;" horiz-adv-x="2372" />
<glyph unicode="&#x2004;" horiz-adv-x="790" />
<glyph unicode="&#x2005;" horiz-adv-x="593" />
<glyph unicode="&#x2006;" horiz-adv-x="395" />
<glyph unicode="&#x2007;" horiz-adv-x="395" />
<glyph unicode="&#x2008;" horiz-adv-x="296" />
<glyph unicode="&#x2009;" horiz-adv-x="474" />
<glyph unicode="&#x200a;" horiz-adv-x="131" />
<glyph unicode="&#x2010;" horiz-adv-x="848" d="M97 498v247h656v-247h-656z" />
<glyph unicode="&#x2011;" horiz-adv-x="848" d="M97 498v247h656v-247h-656z" />
<glyph unicode="&#x2012;" horiz-adv-x="848" d="M97 498v247h656v-247h-656z" />
<glyph unicode="&#x2013;" horiz-adv-x="1123" d="M97 498v247h931v-247h-931z" />
<glyph unicode="&#x2014;" horiz-adv-x="1621" d="M97 498v247h1429v-247h-1429z" />
<glyph unicode="&#x2018;" horiz-adv-x="495" d="M97 943v215q0 137 115 253q56 55 116 94h330q-68 -40 -131 -94q-129 -120 -129 -253v-215h-301z" />
<glyph unicode="&#x2019;" horiz-adv-x="497" d="M-157 943q63 40 125 98q129 124 129 249v215h304v-215q0 -132 -118 -249q-63 -63 -115 -98h-325z" />
<glyph unicode="&#x201c;" horiz-adv-x="888" d="M97 943v215q0 137 115 253q56 55 116 94h288q-60 -39 -116 -94q-115 -116 -115 -253v-215h-288zM503 943v215q0 133 129 253q63 54 131 94h288q-68 -40 -131 -94q-129 -120 -129 -253v-215h-288z" />
<glyph unicode="&#x201d;" horiz-adv-x="890" d="M-157 943q63 40 125 98q129 124 129 249v215h288v-215q0 -129 -130 -249q-68 -59 -130 -98h-282zM273 943q52 35 115 98q118 117 118 249v215h289v-215q0 -130 -119 -249q-63 -63 -115 -98h-288z" />
<glyph unicode="&#x2022;" horiz-adv-x="788" d="M97 623q0 83 40 152.5t109.5 109.5t151.5 40q121 0 207.5 -88t86.5 -214q0 -120 -87 -206.5t-207 -86.5q-125 0 -213 86.5t-88 206.5z" />
<glyph unicode="&#x2026;" horiz-adv-x="1596" d="M97 0v273h301v-273h-301zM648 0v273h300v-273h-300zM1198 0v273h301v-273h-301z" />
<glyph unicode="&#x202f;" horiz-adv-x="474" />
<glyph unicode="&#x205f;" horiz-adv-x="593" />
<glyph unicode="&#x20ac;" horiz-adv-x="1483" d="M97 422v199h133l-2 66q0 49 2 78h-133v200h173q52 126 124 215.5t160 141.5t185 75.5t212 23.5q269 0 435 -78l-105 -263q-155 76 -338 76q-77 0 -142.5 -22t-116 -65t-81.5 -104h477v-200h-545q-5 -58 -5 -78q0 -46 2 -66h496v-199h-430q37 -54 86.5 -92.5t99.5 -56.5 t88 -25t71 -7q45 0 87.5 7.5t86.5 24.5t71 29.5t75 37.5q4 2 5.5 3t4.5 2.5t6 2.5l105 -256q-196 -115 -469 -115q-108 0 -211 30t-189.5 85t-150 140.5t-89.5 189.5h-178z" />
<glyph unicode="&#x2122;" horiz-adv-x="1040" d="M97 1285v71h333v-71h-123v-402h-82v402h-128zM463 883v473h93l147 -344l157 344h83v-473h-70v341l-160 -341h-26l-144 341v-341h-80z" />
<glyph unicode="&#xe000;" horiz-adv-x="1061" d="M0 0v1061h1061v-1061h-1061z" />
<glyph horiz-adv-x="843" />
<glyph horiz-adv-x="1233" d="M47 1006q28 68 100 132q154 133 414 133q105 0 234 -47q49 16 65 54.5t16 116.5h299q0 -106 -53 -199.5t-126 -115.5q88 -83 135 -203t47 -229q0 -140 -37 -252.5t-98.5 -185t-145 -121t-173 -69t-186.5 -20.5h-121l-100 390q-1 5 -4 15.5t-4.5 13t-5 7t-9 6t-14.5 1.5 h-73v272h133q22 0 38 -1t41 -5.5t45 -13t43.5 -25t41.5 -39t34.5 -57.5t27.5 -79l49 -210q29 0 65.5 27.5t71 74.5t58 119.5t23.5 151.5q0 62 -13.5 114t-34.5 87t-50.5 62.5t-58.5 43t-60.5 25t-55.5 13t-44 3.5q-187 0 -320 -123q-59 -55 -94 -123z" />
<glyph horiz-adv-x="1949" d="M58 923q51 98 130 173q176 175 402 175q57 0 113 -7.5t107.5 -22t99 -36.5t88.5 -49.5t74 -61.5t56.5 -73t36.5 -84t13 -93v-411q0 -62 10.5 -102.5t38 -64t73.5 -23.5h111q68 0 104 50t36 140v812h302v-802q0 -64 -13 -126.5t-45 -125t-79 -109.5t-120.5 -76t-164.5 -29 h-210q-87 0 -154.5 36t-109 100t-63 147.5t-21.5 182.5v348q0 98 -72.5 152.5t-192.5 54.5q-117 0 -180 -38q-26 -15 -35 -37l163 -132q-30 -21 -48 -46q-50 -75 -50 -163l-2 -254v-7v-18t2.5 -13.5t8.5 -10.5t16 -4h92v-275h-158q-68 0 -118.5 19t-79.5 53t-42.5 76 t-13.5 93v341q0 75 20 154q10 26 24 55q-7 5 -76 67q-19 15 -36.5 30t-27 24.5t-9.5 10.5z" />
<glyph d="M-1158 1686q0 270 306 270h157q100 0 200 75q41 29 83 77l4 -265q-33 -14 -85 -27q-105 -25 -202 -25h-131q-71 0 -101 -30.5t-30 -74.5q0 -30 12.5 -55t39.5 -25q52 0 72 58q10 24 10 59h50q4 -33 15 -59q20 -58 63 -58q24 0 43.5 24t27.5 50t8 43h199 q0 -126 -67.5 -204t-183.5 -78q-52 0 -95 55q-28 39 -37 58q-14 -38 -26 -55q-38 -55 -105 -55q-66 0 -117.5 29.5t-80.5 84.5t-29 128z" />
<glyph d="M-595 2111l2 261h286q26 0 50 -12.5t39.5 -34t15.5 -47.5q0 -22 15 -37t37 -15h310l-113 -260h-354q-60 0 -95.5 26t-35.5 66q0 53 -47 53h-110z" />
<glyph d="M-698 2051q0 49 18.5 91.5t46.5 69.5t62 46t63.5 27.5t51.5 8.5q41 0 76 -58q23 -41 29 -55q13 30 31 55q40 58 92 58q54 0 102 -30.5t81 -90.5q11 -18 15 -22t17 -4l173 -3l-113 -256h-152q-67 0 -95 29t-28 75q0 15 -1 29.5t-4.5 35t-9 35.5t-17 26t-25.5 11t-23.5 -12 t-13 -28.5t-3.5 -37.5h-53q0 30 -9.5 54t-29.5 24q-22 0 -37.5 -24t-15.5 -54q0 -45 48 -111q17 -25 50 -52h-231q-25 22 -47 52q-48 66 -48 111z" />
<glyph horiz-adv-x="2154" d="M58 923q51 98 134 173q186 175 416 175q157 0 292 -58.5t211 -161.5q22 32 47.5 59.5t65 58.5t85 52.5t108 35.5t132.5 14q99 0 191 -34.5t163 -95t113 -152t42 -198.5v-1124q0 -57 -79 -142q-55 -54 -78 -73h-145v1313q0 57 -18 101t-44.5 68t-60 39.5t-59.5 20t-48 4.5 q-64 0 -117.5 -11t-88 -28.5t-61.5 -40.5t-41.5 -44t-23.5 -41t-11.5 -30.5t-2.5 -14.5v-1121q0 -57 -79 -142q-55 -54 -78 -73h-145v1339q0 207 -283 207q-97 0 -160 -38q-26 -15 -39 -37l157 -132q-92 -92 -92 -209v-252q0 -17 5.5 -29t13.5 -17.5t22 -8t24 -2.5t27 1 t24 1v-272h-179q-107 0 -168.5 61t-61.5 177v341q0 75 20 154q17 46 22 55q-7 5 -77 67q-75 61 -75 65z" />
<glyph horiz-adv-x="2154" d="M58 923q49 100 125 173q186 175 438 175q133 0 273.5 -62t213.5 -166q19 27 38.5 50t48 51t63.5 49t77.5 39.5t97 28.5t116.5 10q99 0 191 -34.5t163 -95t113 -152t42 -198.5v-1124q0 -57 -79 -142q-55 -54 -78 -73h-145v1313q0 57 -18 101t-44.5 68t-60 39.5t-59.5 20 t-48 4.5q-64 0 -117.5 -11t-88 -28.5t-61.5 -40.5t-41.5 -44t-23.5 -41t-11.5 -30.5t-2.5 -14.5v-1121q0 -57 -79 -142q-55 -54 -78 -73h-145v1339q0 85 -66.5 146t-179.5 61q-118 0 -192 -38q-28 -16 -44 -37l162 -132q-23 -19 -42 -46q-41 -69 -41 -163v-341 q0 -98 -63 -168t-157 -70q-32 0 -95 -1.5t-95 -1.5v273h80q5 0 9 1.5t7 3t5 5t2.5 6t1 8t0.5 8v10v10.5l-5 257q-2 65 21 154q9 26 24 55q-7 5 -77 67q-75 61 -75 65z" />
</font>
</defs></svg> 